(footprint "ESP32-C3_SUPERMINI" (version 20221018) (generator pcbnew)
  (layer "F.Cu")
  (attr through_hole)
  (fp_text reference "REF**" (at -5.715 -13.6525) (layer "F.SilkS")
      (effects (font (size 1 1) (thickness 0.15)))
    (tstamp b8052b1b-3a15-4316-ad77-2833669881c7)
  )
  (fp_text value "MODULE_ESP32-C3_SUPERMINI" (at 6.985 12.3825) (layer "F.Fab")
      (effects (font (size 1 1) (thickness 0.15)))
    (tstamp 03f85902-2f97-4ec6-a1e8-973be37242c3)
  )
  (fp_text user "10" (at -11.18 3.45 unlocked) (layer "F.SilkS")
      (effects (font (size 1 1) (thickness 0.1)) (justify left bottom))
    (tstamp 1db01cad-9f7b-4387-bce6-a6940642900c)
  )
  (fp_text user "G" (at 9.13 -6.74 unlocked) (layer "F.SilkS")
      (effects (font (size 1 1) (thickness 0.1)) (justify left bottom))
    (tstamp 2ddd0cbd-636b-4b4c-9940-f7a697146534)
  )
  (fp_text user "5" (at -10.25 -9.22 unlocked) (layer "F.SilkS")
      (effects (font (size 1 1) (thickness 0.1)) (justify left bottom))
    (tstamp 2f503830-534d-418f-ac4a-a2d609de10b1)
  )
  (fp_text user "20" (at -11.16 6.08 unlocked) (layer "F.SilkS")
      (effects (font (size 1 1) (thickness 0.1)) (justify left bottom))
    (tstamp 420cf7c0-cbd0-4f21-a4a6-d51f18ecad21)
  )
  (fp_text user "1" (at 9.08 5.69 unlocked) (layer "F.SilkS")
      (effects (font (size 1 1) (thickness 0.1)) (justify left bottom))
    (tstamp 5abdbc90-4ce1-46c2-9a55-fce4710d40d0)
  )
  (fp_text user "3V3" (at 8.99 -4.11 unlocked) (layer "F.SilkS")
      (effects (font (size 1 1) (thickness 0.1)) (justify left bottom))
    (tstamp 6444fe9b-9f64-4121-a738-63bd2db42e79)
  )
  (fp_text user "0" (at 9.11 8.42 unlocked) (layer "F.SilkS")
      (effects (font (size 1 1) (thickness 0.1)) (justify left bottom))
    (tstamp 884ec74f-c7cf-44d3-be07-354774f7f1dd)
  )
  (fp_text user "3" (at 9.14 0.92 unlocked) (layer "F.SilkS")
      (effects (font (size 1 1) (thickness 0.1)) (justify left bottom))
    (tstamp a3b1fb8b-bb49-44b9-972a-d3791b2eb5c3)
  )
  (fp_text user "5V" (at 9.1 -9.22 unlocked) (layer "F.SilkS")
      (effects (font (size 1 1) (thickness 0.1)) (justify left bottom))
    (tstamp a89c17be-7563-48ab-9d21-ae782e084a3f)
  )
  (fp_text user "9" (at -10.25 0.64 unlocked) (layer "F.SilkS")
      (effects (font (size 1 1) (thickness 0.1)) (justify left bottom))
    (tstamp baddf9c3-f65b-46c9-a0cd-3f25ee2aa722)
  )
  (fp_text user "8" (at -10.21 -1.76 unlocked) (layer "F.SilkS")
      (effects (font (size 1 1) (thickness 0.1)) (justify left bottom))
    (tstamp c1656a0b-96a5-4bed-a676-f3fc8c4b6c5d)
  )
  (fp_text user "7" (at -10.18 -4.27 unlocked) (layer "F.SilkS")
      (effects (font (size 1 1) (thickness 0.1)) (justify left bottom))
    (tstamp d53d8af7-55e3-405a-ae4d-571ddbed949d)
  )
  (fp_text user "21" (at -11.13 8.55 unlocked) (layer "F.SilkS")
      (effects (font (size 1 1) (thickness 0.1)) (justify left bottom))
    (tstamp d7c4af14-a1af-44e5-9840-bd2fe880dc66)
  )
  (fp_text user "4" (at 9.14 -1.67 unlocked) (layer "F.SilkS")
      (effects (font (size 1 1) (thickness 0.1)) (justify left bottom))
    (tstamp daca7043-7aea-4334-9351-d801ea794f31)
  )
  (fp_text user "2" (at 9.17 3.01 unlocked) (layer "F.SilkS")
      (effects (font (size 1 1) (thickness 0.1)) (justify left bottom))
    (tstamp dd38c262-87ca-451d-8d94-ed4b4f5294c9)
  )
  (fp_text user "6" (at -10.23 -6.74 unlocked) (layer "F.SilkS")
      (effects (font (size 1 1) (thickness 0.1)) (justify left bottom))
    (tstamp f1a333e4-5c17-484c-9c70-13802a221722)
  )
  (fp_line (start -9 11.35) (end -9 -11.35)
    (stroke (width 0.127) (type solid)) (layer "F.SilkS") (tstamp bd8c195d-e3fa-4ca3-b662-2f6e5bcb8c27))
  (fp_line (start -4.5 -12.65) (end -4.5 -11.35)
    (stroke (width 0.127) (type solid)) (layer "F.SilkS") (tstamp 842d3222-9058-4f49-b6bb-aee78b64f6fa))
  (fp_line (start -4.5 -11.35) (end -9 -11.35)
    (stroke (width 0.127) (type solid)) (layer "F.SilkS") (tstamp ba642ca6-d171-4f02-81bd-9faf256a8744))
  (fp_line (start 4.5 -12.65) (end -4.5 -12.65)
    (stroke (width 0.127) (type solid)) (layer "F.SilkS") (tstamp 044b9cbe-54a7-4a36-afb6-6ffde2493051))
  (fp_line (start 4.5 -12.65) (end 4.5 -11.35)
    (stroke (width 0.127) (type solid)) (layer "F.SilkS") (tstamp 18ec6fad-2122-4930-935e-0c20d3c8816a))
  (fp_line (start 9 -11.35) (end 4.5 -11.35)
    (stroke (width 0.127) (type solid)) (layer "F.SilkS") (tstamp 150f63cb-7868-4dd2-948f-6fd4c6c76ff5))
  (fp_line (start 9 11.35) (end -9 11.35)
    (stroke (width 0.127) (type solid)) (layer "F.SilkS") (tstamp ca576bbd-05c0-4cd2-b88a-0ff70bffe7a1))
  (fp_line (start 9 11.35) (end 9 -11.35)
    (stroke (width 0.127) (type solid)) (layer "F.SilkS") (tstamp c91ccd68-4fa3-44d4-bf8c-146e391f24e6))
  (fp_poly
    (pts
      (xy -2.149851 2.932607)
      (xy -2.149851 -0.093776)
      (xy 0.876532 -0.093776)
      (xy 0.876532 2.932607)
    )

    (stroke (width 0) (type solid)) (fill solid) (layer "F.SilkS") (tstamp 8c731443-1fd7-4dfa-be6b-f7b0caa18d5b))
  (fp_poly
    (pts
      (xy -1.28517 9.417713)
      (xy -1.28517 5.526649)
      (xy 0.444192 5.526649)
      (xy 0.444192 9.417713)
    )

    (stroke (width 0) (type solid)) (fill solid) (layer "F.SilkS") (tstamp ff7f97f9-000d-4d22-a877-98962cd787c1))
  (fp_poly
    (pts
      (xy 3.902915 6.39133)
      (xy 3.902915 5.95899)
      (xy 4.335256 5.95899)
      (xy 4.335256 6.39133)
    )

    (stroke (width 0) (type solid)) (fill solid) (layer "F.SilkS") (tstamp 8e425bff-e30a-4f96-9445-a92d15410554))
  (fp_poly
    (pts
      (xy 3.902915 7.256011)
      (xy 3.902915 6.823671)
      (xy 4.335256 6.823671)
      (xy 4.335256 7.256011)
    )

    (stroke (width 0) (type solid)) (fill solid) (layer "F.SilkS") (tstamp ab2d2b35-e5ee-4fb8-9ef1-4ffa3ce829c6))
  (fp_poly
    (pts
      (xy 3.902915 8.120692)
      (xy 3.902915 7.688351)
      (xy 4.335256 7.688351)
      (xy 4.335256 8.120692)
    )

    (stroke (width 0) (type solid)) (fill solid) (layer "F.SilkS") (tstamp 98088ad2-dda2-4762-b2f1-6c5724d5d51f))
  (fp_poly
    (pts
      (xy -2.60496 8.91865)
      (xy -2.634244 9.034264)
      (xy -2.691721 9.134407)
      (xy -2.773419 9.226486)
      (xy -2.875338 9.315401)
      (xy -2.976202 9.36974)
      (xy -3.094372 9.396595)
      (xy -3.230702 9.40313)
      (xy -3.380149 9.394944)
      (xy -3.495763 9.36566)
      (xy -3.595906 9.308183)
      (xy -3.687985 9.226486)
      (xy -3.753108 9.151709)
      (xy -3.807394 9.073528)
      (xy -3.816004 9.058035)
      (xy -3.849777 8.956203)
      (xy -3.867783 8.825935)
      (xy -3.868756 8.690853)
      (xy -3.851429 8.574581)
      (xy -3.843286 8.549039)
      (xy -3.757834 8.38961)
      (xy -3.639255 8.265349)
      (xy -3.496316 8.178233)
      (xy -3.337783 8.130236)
      (xy -3.172424 8.123336)
      (xy -3.009006 8.159508)
      (xy -2.856295 8.240728)
      (xy -2.776707 8.308631)
      (xy -2.686442 8.411475)
      (xy -2.631215 8.511995)
      (xy -2.603757 8.628794)
      (xy -2.596775 8.769202)
    )

    (stroke (width 0) (type solid)) (fill solid) (layer "F.SilkS") (tstamp 357f915b-671a-4c81-aaa9-6bb248cf6d03))
  (fp_poly
    (pts
      (xy 3.431151 -1.391794)
      (xy 3.353388 -1.239576)
      (xy 3.232607 -1.107805)
      (xy 3.174715 -1.064454)
      (xy 3.017135 -0.986888)
      (xy 2.85631 -0.957446)
      (xy 2.698623 -0.971076)
      (xy 2.55046 -1.022724)
      (xy 2.418203 -1.107338)
      (xy 2.308238 -1.219863)
      (xy 2.226949 -1.355248)
      (xy 2.180718 -1.508438)
      (xy 2.175932 -1.674382)
      (xy 2.211138 -1.827132)
      (xy 2.293052 -1.982656)
      (xy 2.410635 -2.105986)
      (xy 2.554444 -2.193965)
      (xy 2.715041 -2.243434)
      (xy 2.855779 -2.249972)
      (xy 2.855779 -1.8112)
      (xy 2.760023 -1.803316)
      (xy 2.744271 -1.797472)
      (xy 2.657507 -1.737044)
      (xy 2.616067 -1.65145)
      (xy 2.623384 -1.549661)
      (xy 2.63642 -1.515491)
      (xy 2.695068 -1.442256)
      (xy 2.776843 -1.406526)
      (xy 2.866471 -1.407784)
      (xy 2.948676 -1.445512)
      (xy 3.008182 -1.519194)
      (xy 3.012173 -1.528222)
      (xy 3.027883 -1.625225)
      (xy 3.000116 -1.711695)
      (xy 2.939279 -1.777173)
      (xy 2.855779 -1.8112)
      (xy 2.855779 -2.249972)
      (xy 2.882982 -2.251236)
      (xy 3.048829 -2.21421)
      (xy 3.174715 -2.149482)
      (xy 3.312036 -2.027931)
      (xy 3.40634 -1.882527)
      (xy 3.457628 -1.722129)
      (xy 3.465898 -1.555598)
    )

    (stroke (width 0) (type solid)) (fill solid) (layer "F.SilkS") (tstamp 916989be-7025-4bb3-b629-56ca393dade0))
  (fp_poly
    (pts
      (xy -2.165745 6.075957)
      (xy -2.193047 6.233101)
      (xy -2.222262 6.315572)
      (xy -2.304518 6.44901)
      (xy -2.420953 6.579845)
      (xy -2.553858 6.690367)
      (xy -2.657949 6.751259)
      (xy -2.795056 6.793169)
      (xy -2.959938 6.812008)
      (xy -3.131499 6.807776)
      (xy -3.288643 6.780474)
      (xy -3.371114 6.751259)
      (xy -3.503495 6.669884)
      (xy -3.632738 6.555221)
      (xy -3.741693 6.424503)
      (xy -3.804692 6.315572)
      (xy -3.845024 6.184908)
      (xy -3.867197 6.028848)
      (xy -3.869818 5.870099)
      (xy -3.851493 5.731372)
      (xy -3.842509 5.699485)
      (xy -3.75403 5.510466)
      (xy -3.627138 5.352611)
      (xy -3.46974 5.229453)
      (xy -3.289739 5.144521)
      (xy -3.09504 5.101345)
      (xy -3.014532 5.102189)
      (xy -3.014532 5.526649)
      (xy -3.080102 5.538756)
      (xy -3.165719 5.569378)
      (xy -3.20471 5.587447)
      (xy -3.30595 5.662771)
      (xy -3.38739 5.768494)
      (xy -3.437145 5.886379)
      (xy -3.446872 5.95899)
      (xy -3.434766 6.02456)
      (xy -3.404143 6.110177)
      (xy -3.386074 6.149168)
      (xy -3.31075 6.250408)
      (xy -3.205027 6.331848)
      (xy -3.087142 6.381603)
      (xy -3.014532 6.39133)
      (xy -2.898371 6.367765)
      (xy -2.782834 6.304994)
      (xy -2.686155 6.214902)
      (xy -2.642989 6.149168)
      (xy -2.606689 6.063322)
      (xy -2.584949 5.985149)
      (xy -2.582191 5.95899)
      (xy -2.594297 5.893419)
      (xy -2.62492 5.807802)
      (xy -2.642989 5.768811)
      (xy -2.718313 5.667571)
      (xy -2.824036 5.586131)
      (xy -2.941921 5.536376)
      (xy -3.014532 5.526649)
      (xy -3.014532 5.102189)
      (xy -2.89355 5.103458)
      (xy -2.693173 5.154388)
      (xy -2.656295 5.169691)
      (xy -2.527186 5.247475)
      (xy -2.399135 5.35981)
      (xy -2.289248 5.489644)
      (xy -2.222262 5.602407)
      (xy -2.180353 5.739515)
      (xy -2.161513 5.904397)
    )

    (stroke (width 0) (type solid)) (fill solid) (layer "F.SilkS") (tstamp cb915e37-84dc-4a6b-bc0d-edb99f953102))
  (fp_poly
    (pts
      (xy 2.59 6.508298)
      (xy 2.562698 6.665441)
      (xy 2.533482 6.747912)
      (xy 2.451226 6.88135)
      (xy 2.334791 7.012185)
      (xy 2.201887 7.122708)
      (xy 2.097796 7.183599)
      (xy 1.960688 7.225509)
      (xy 1.795806 7.244348)
      (xy 1.624245 7.240117)
      (xy 1.467102 7.212815)
      (xy 1.384631 7.183599)
      (xy 1.25225 7.102224)
      (xy 1.123007 6.987561)
      (xy 1.014052 6.856843)
      (xy 0.951053 6.747912)
      (xy 0.910721 6.617249)
      (xy 0.888548 6.461188)
      (xy 0.885927 6.30244)
      (xy 0.904252 6.163713)
      (xy 0.913236 6.131826)
      (xy 1.001715 5.942806)
      (xy 1.128606 5.784952)
      (xy 1.286005 5.661793)
      (xy 1.466006 5.576861)
      (xy 1.660704 5.533686)
      (xy 1.741213 5.53453)
      (xy 1.741213 5.95899)
      (xy 1.625053 5.982555)
      (xy 1.509515 6.045326)
      (xy 1.412837 6.135418)
      (xy 1.369671 6.201151)
      (xy 1.333371 6.286997)
      (xy 1.311631 6.365171)
      (xy 1.308873 6.39133)
      (xy 1.320979 6.4569)
      (xy 1.351601 6.542518)
      (xy 1.369671 6.581509)
      (xy 1.444995 6.682749)
      (xy 1.550717 6.764189)
      (xy 1.668602 6.813944)
      (xy 1.741213 6.823671)
      (xy 1.857374 6.800105)
      (xy 1.972911 6.737334)
      (xy 2.069589 6.647242)
      (xy 2.112756 6.581509)
      (xy 2.149055 6.495663)
      (xy 2.170795 6.417489)
      (xy 2.173554 6.39133)
      (xy 2.149989 6.27517)
      (xy 2.087217 6.159632)
      (xy 1.997125 6.062954)
      (xy 1.931392 6.019788)
      (xy 1.845546 5.983488)
      (xy 1.767372 5.961748)
      (xy 1.741213 5.95899)
      (xy 1.741213 5.53453)
      (xy 1.862194 5.535798)
      (xy 2.062572 5.586728)
      (xy 2.099449 5.602031)
      (xy 2.228559 5.679815)
      (xy 2.35661 5.79215)
      (xy 2.466497 5.921984)
      (xy 2.533482 6.034748)
      (xy 2.575392 6.171855)
      (xy 2.594231 6.336737)
    )

    (stroke (width 0) (type solid)) (fill solid) (layer "F.SilkS") (tstamp dc05cf48-9408-4150-99f4-b169c41634ae))
  (fp_poly
    (pts
      (xy 2.59 8.67)
      (xy 2.562698 8.827143)
      (xy 2.533482 8.909615)
      (xy 2.451226 9.043053)
      (xy 2.334791 9.173887)
      (xy 2.201887 9.28441)
      (xy 2.097796 9.345301)
      (xy 1.960688 9.387211)
      (xy 1.795806 9.40605)
      (xy 1.624245 9.401819)
      (xy 1.467102 9.374517)
      (xy 1.384631 9.345301)
      (xy 1.25225 9.263926)
      (xy 1.123007 9.149263)
      (xy 1.014052 9.018545)
      (xy 0.951053 8.909615)
      (xy 0.910721 8.778951)
      (xy 0.888548 8.62289)
      (xy 0.885927 8.464142)
      (xy 0.904252 8.325415)
      (xy 0.913236 8.293528)
      (xy 1.001715 8.104508)
      (xy 1.128606 7.946654)
      (xy 1.286005 7.823495)
      (xy 1.466006 7.738563)
      (xy 1.660704 7.695388)
      (xy 1.741213 7.696232)
      (xy 1.741213 8.120692)
      (xy 1.625053 8.144257)
      (xy 1.509515 8.207028)
      (xy 1.412837 8.29712)
      (xy 1.369671 8.362853)
      (xy 1.333371 8.448699)
      (xy 1.311631 8.526873)
      (xy 1.308873 8.553032)
      (xy 1.320979 8.618603)
      (xy 1.351601 8.70422)
      (xy 1.369671 8.743211)
      (xy 1.444995 8.844451)
      (xy 1.550717 8.925891)
      (xy 1.668602 8.975646)
      (xy 1.741213 8.985373)
      (xy 1.857374 8.961808)
      (xy 1.972911 8.899036)
      (xy 2.069589 8.808944)
      (xy 2.112756 8.743211)
      (xy 2.149055 8.657365)
      (xy 2.170795 8.579191)
      (xy 2.173554 8.553032)
      (xy 2.161447 8.487462)
      (xy 2.130825 8.401845)
      (xy 2.112756 8.362853)
      (xy 2.037431 8.261614)
      (xy 1.931709 8.180174)
      (xy 1.813824 8.130419)
      (xy 1.741213 8.120692)
      (xy 1.741213 7.696232)
      (xy 1.862194 7.6975)
      (xy 2.062572 7.748431)
      (xy 2.099449 7.763733)
      (xy 2.228559 7.841517)
      (xy 2.35661 7.953853)
      (xy 2.466497 8.083686)
      (xy 2.533482 8.19645)
      (xy 2.575392 8.333557)
      (xy 2.594231 8.498439)
    )

    (stroke (width 0) (type solid)) (fill solid) (layer "F.SilkS") (tstamp 3b4cab66-1f5e-4e47-b54e-79dd849a8109))
  (fp_poly
    (pts
      (xy 1.741213 -0.093776)
      (xy 1.741213 0.338564)
      (xy 2.605894 0.338564)
      (xy 2.605894 0.770905)
      (xy 1.741213 0.770905)
      (xy 1.741213 1.203245)
      (xy 2.605894 1.203245)
      (xy 2.605894 1.635585)
      (xy 1.741213 1.635585)
      (xy 1.741213 2.067926)
      (xy 2.605894 2.067926)
      (xy 2.605894 2.500266)
      (xy 1.741213 2.500266)
      (xy 1.741213 2.932607)
      (xy 2.605894 2.932607)
      (xy 2.605894 3.364947)
      (xy 1.752422 3.364947)
      (xy 1.72091 3.482766)
      (xy 1.665218 3.600776)
      (xy 1.573607 3.700916)
      (xy 1.461305 3.768637)
      (xy 1.404025 3.785451)
      (xy 1.308873 3.803302)
      (xy 1.308873 4.661968)
      (xy 0.876532 4.661968)
      (xy 0.876532 3.797288)
      (xy 0.444192 3.797288)
      (xy 0.444192 4.661968)
      (xy 0.011851 4.661968)
      (xy 0.011851 3.797288)
      (xy -0.420489 3.797288)
      (xy -0.420489 4.661968)
      (xy -0.852829 4.661968)
      (xy -0.852829 3.797288)
      (xy -1.28517 3.797288)
      (xy -1.28517 4.661968)
      (xy -1.71751 4.661968)
      (xy -1.71751 3.797288)
      (xy -2.149851 3.797288)
      (xy -2.149851 4.661968)
      (xy -2.582191 4.661968)
      (xy -2.582191 3.803302)
      (xy -2.677343 3.785451)
      (xy -2.79419 3.738654)
      (xy -2.897722 3.652395)
      (xy -2.972708 3.541221)
      (xy -2.994229 3.482766)
      (xy -3.02574 3.364947)
      (xy -3.879212 3.364947)
      (xy -3.879212 2.932607)
      (xy -3.014532 2.932607)
      (xy -3.014532 2.500266)
      (xy -3.879212 2.500266)
      (xy -3.879212 2.067926)
      (xy -3.014532 2.067926)
      (xy -3.014532 1.635585)
      (xy -3.879212 1.635585)
      (xy -3.879212 1.203245)
      (xy -3.014532 1.203245)
      (xy -3.014532 0.770905)
      (xy -3.879212 0.770905)
      (xy -3.879212 0.338564)
      (xy -3.014532 0.338564)
      (xy -3.014532 -0.093776)
      (xy -3.879212 -0.093776)
      (xy -3.879212 -0.526117)
      (xy -3.020546 -0.526117)
      (xy -3.002695 -0.621269)
      (xy -2.955898 -0.738116)
      (xy -2.869639 -0.841648)
      (xy -2.758465 -0.916634)
      (xy -2.70001 -0.938154)
      (xy -2.582191 -0.969666)
      (xy -2.582191 -0.526117)
      (xy -2.582191 3.364947)
      (xy 1.308873 3.364947)
      (xy 1.308873 -0.526117)
      (xy -2.582191 -0.526117)
      (xy -2.582191 -0.969666)
      (xy -2.582191 -1.823138)
      (xy -2.149851 -1.823138)
      (xy -2.149851 -0.958457)
      (xy -1.71751 -0.958457)
      (xy -1.71751 -1.823138)
      (xy -1.28517 -1.823138)
      (xy -1.28517 -0.958457)
      (xy -0.852829 -0.958457)
      (xy -0.852829 -1.823138)
      (xy -0.420489 -1.823138)
      (xy -0.420489 -0.958457)
      (xy 0.011851 -0.958457)
      (xy 0.011851 -1.823138)
      (xy 0.444192 -1.823138)
      (xy 0.444192 -0.958457)
      (xy 0.876532 -0.958457)
      (xy 0.876532 -1.823138)
      (xy 1.308873 -1.823138)
      (xy 1.308873 -0.958457)
      (xy 1.37243 -0.958457)
      (xy 1.459656 -0.935565)
      (xy 1.553393 -0.875814)
      (xy 1.640254 -0.792591)
      (xy 1.706852 -0.699283)
      (xy 1.7398 -0.609276)
      (xy 1.741213 -0.589674)
      (xy 1.741213 -0.526117)
      (xy 2.605894 -0.526117)
      (xy 2.605894 -0.093776)
    )

    (stroke (width 0) (type solid)) (fill solid) (layer "F.SilkS") (tstamp a0b74f93-15f8-47be-9f33-8767b402ea54))
  (fp_poly
    (pts
      (xy 5.186398 7.651718)
      (xy 5.18568 7.887826)
      (xy 5.183887 8.083371)
      (xy 5.180562 8.242844)
      (xy 5.175251 8.370739)
      (xy 5.167499 8.471549)
      (xy 5.15685 8.549766)
      (xy 5.14285 8.609883)
      (xy 5.125043 8.656392)
      (xy 5.102974 8.693787)
      (xy 5.076189 8.72656)
      (xy 5.044231 8.759204)
      (xy 5.008709 8.794145)
      (xy 4.907634 8.880315)
      (xy 4.800626 8.935854)
      (xy 4.670796 8.967524)
      (xy 4.544671 8.979896)
      (xy 4.335256 8.992316)
      (xy 4.335256 9.175147)
      (xy 4.310282 9.412562)
      (xy 4.238515 9.634181)
      (xy 4.124691 9.833375)
      (xy 3.973543 10.003519)
      (xy 3.789804 10.137986)
      (xy 3.582569 10.228797)
      (xy 3.556971 10.236436)
      (xy 3.529767 10.243312)
      (xy 3.49813 10.249466)
      (xy 3.459232 10.254939)
      (xy 3.410243 10.259769)
      (xy 3.348338 10.263997)
      (xy 3.270686 10.267663)
      (xy 3.174461 10.270807)
      (xy 3.056833 10.273469)
      (xy 2.914976 10.27569)
      (xy 2.74606 10.277508)
      (xy 2.547258 10.278964)
      (xy 2.315742 10.280099)
      (xy 2.048684 10.280952)
      (xy 1.743255 10.281563)
      (xy 1.396627 10.281972)
      (xy 1.005973 10.28222)
      (xy 0.568464 10.282346)
      (xy 0.081272 10.28239)
      (xy -0.204319 10.282394)
      (xy -0.719598 10.282377)
      (xy -1.183663 10.282301)
      (xy -1.599342 10.282124)
      (xy -1.969462 10.281807)
      (xy -2.296852 10.28131)
      (xy -2.58434 10.280593)
      (xy -2.834754 10.279616)
      (xy -3.050922 10.278339)
      (xy -3.235672 10.276722)
      (xy -3.391832 10.274724)
      (xy -3.522231 10.272306)
      (xy -3.629696 10.269428)
      (xy -3.717056 10.266049)
      (xy -3.787138 10.262131)
      (xy -3.842771 10.257632)
      (xy -3.886783 10.252512)
      (xy -3.922002 10.246732)
      (xy -3.951255 10.240252)
      (xy -3.977372 10.233031)
      (xy -3.991206 10.228797)
      (xy -4.195592 10.137855)
      (xy -4.379327 10.003231)
      (xy -4.533298 9.83404)
      (xy -4.648389 9.639397)
      (xy -4.690297 9.529707)
      (xy -4.696395 9.509378)
      (xy -4.702012 9.487594)
      (xy -4.707166 9.462159)
      (xy -4.711877 9.430875)
      (xy -4.716164 9.391548)
      (xy -4.720045 9.341981)
      (xy -4.723541 9.279978)
      (xy -4.72667 9.203343)
      (xy -4.729451 9.109879)
      (xy -4.731905 8.99739)
      (xy -4.734049 8.863681)
      (xy -4.735903 8.706554)
      (xy -4.737487 8.523814)
      (xy -4.738819 8.313265)
      (xy -4.739919 8.07271)
      (xy -4.740806 7.799954)
      (xy -4.741499 7.4928)
      (xy -4.742017 7.149051)
      (xy -4.74238 6.766512)
      (xy -4.742606 6.342987)
      (xy -4.742715 5.876279)
      (xy -4.742727 5.364193)
      (xy -4.74266 4.804531)
      (xy -4.742533 4.195098)
      (xy -4.742375 3.571516)
      (xy -4.742193 2.912771)
      (xy -4.741991 2.305877)
      (xy -4.741751 1.748642)
      (xy -4.741452 1.238873)
      (xy -4.741075 0.774379)
      (xy -4.740601 0.352967)
      (xy -4.740008 -0.027554)
      (xy -4.739279 -0.369376)
      (xy -4.738392 -0.674692)
      (xy -4.737328 -0.945693)
      (xy -4.736068 -1.184572)
      (xy -4.734592 -1.39352)
      (xy -4.73288 -1.574729)
      (xy -4.730912 -1.730392)
      (xy -4.728668 -1.8627)
      (xy -4.72613 -1.973846)
      (xy -4.723276 -2.06602)
      (xy -4.720088 -2.141416)
      (xy -4.716546 -2.202226)
      (xy -4.712629 -2.250641)
      (xy -4.708319 -2.288853)
      (xy -4.703595 -2.319054)
      (xy -4.698438 -2.343437)
      (xy -4.692828 -2.364193)
      (xy -4.688834 -2.377074)
      (xy -4.597791 -2.576647)
      (xy -4.463204 -2.75737)
      (xy -4.314398 -2.891915)
      (xy -4.314398 7.688351)
      (xy -4.30622 8.532766)
      (xy -4.303658 8.771724)
      (xy -4.300847 8.962845)
      (xy -4.297399 9.112337)
      (xy -4.292928 9.226406)
      (xy -4.287046 9.311258)
      (xy -4.279367 9.3731)
      (xy -4.269503 9.418137)
      (xy -4.257067 9.452578)
      (xy -4.24767 9.471756)
      (xy -4.132217 9.634367)
      (xy -3.981643 9.758099)
      (xy -3.946766 9.77822)
      (xy -3.914169 9.794579)
      (xy -3.879431 9.807651)
      (xy -3.83622 9.817877)
      (xy -3.7782 9.825699)
      (xy -3.699037 9.831559)
      (xy -3.592399 9.835901)
      (xy -3.451951 9.839165)
      (xy -3.271359 9.841795)
      (xy -3.04429 9.844232)
      (xy -2.994266 9.844721)
      (xy -2.149851 9.852899)
      (xy -2.149851 7.688351)
      (xy -4.314398 7.688351)
      (xy -4.314398 -2.891915)
      (xy -4.294774 -2.909658)
      (xy -4.102197 -3.023925)
      (xy -3.991206 -3.066563)
      (xy -3.965608 -3.074201)
      (xy -3.938405 -3.081078)
      (xy -3.906768 -3.087232)
      (xy -3.867869 -3.092704)
      (xy -3.818881 -3.097534)
      (xy -3.756975 -3.101762)
      (xy -3.679324 -3.105428)
      (xy -3.583098 -3.108572)
      (xy -3.465471 -3.111235)
      (xy -3.323613 -3.113455)
      (xy -3.154698 -3.115273)
      (xy -2.955896 -3.11673)
      (xy -2.72438 -3.117864)
      (xy -2.457321 -3.118717)
      (xy -2.151892 -3.119328)
      (xy -1.805264 -3.119738)
      (xy -1.41461 -3.119985)
      (xy -0.977101 -3.120111)
      (xy -0.489909 -3.120155)
      (xy -0.204319 -3.120159)
      (xy -0.204319 -2.674308)
      (xy -0.721274 -2.674286)
      (xy -1.186945 -2.674196)
      (xy -1.604089 -2.674)
      (xy -1.975464 -2.67366)
      (xy -2.303828 -2.673141)
      (xy -2.591938 -2.672403)
      (xy -2.842553 -2.671411)
      (xy -3.058431 -2.670127)
      (xy -3.242329 -2.668513)
      (xy -3.397005 -2.666533)
      (xy -3.525217 -2.664149)
      (xy -3.629723 -2.661324)
      (xy -3.71328 -2.65802)
      (xy -3.778647 -2.654201)
      (xy -3.828582 -2.649829)
      (xy -3.865842 -2.644867)
      (xy -3.893185 -2.639277)
      (xy -3.913369 -2.633023)
      (xy -3.929152 -2.626067)
      (xy -3.933255 -2.623936)
      (xy -4.095761 -2.509393)
      (xy -4.215569 -2.362048)
      (xy -4.286306 -2.201611)
      (xy -4.288514 -2.167747)
      (xy -4.290682 -2.082639)
      (xy -4.292797 -1.949083)
      (xy -4.294846 -1.769877)
      (xy -4.296815 -1.547819)
      (xy -4.298691 -1.285706)
      (xy -4.30046 -0.986335)
      (xy -4.302108 -0.652504)
      (xy -4.303623 -0.287012)
      (xy -4.30499 0.107346)
      (xy -4.306197 0.527771)
      (xy -4.307229 0.971466)
      (xy -4.308074 1.435633)
      (xy -4.308718 1.917475)
      (xy -4.309148 2.414194)
      (xy -4.30923 2.561064)
      (xy -4.311553 7.256011)
      (xy -1.71751 7.256011)
      (xy -1.71751 9.851115)
      (xy 0.856266 9.843829)
      (xy 1.287578 9.84257)
      (xy 1.668157 9.841337)
      (xy 2.001316 9.840059)
      (xy 2.290364 9.838664)
      (xy 2.538614 9.83708)
      (xy 2.749375 9.835237)
      (xy 2.925958 9.833062)
      (xy 3.071675 9.830483)
      (xy 3.189835 9.827431)
      (xy 3.283751 9.823832)
      (xy 3.356732 9.819615)
      (xy 3.41209 9.814709)
      (xy 3.453134 9.809042)
      (xy 3.483177 9.802543)
      (xy 3.505529 9.795141)
      (xy 3.523501 9.786762)
      (xy 3.524617 9.786171)
      (xy 3.682396 9.6777)
      (xy 3.795425 9.542314)
      (xy 3.866311 9.375801)
      (xy 3.896995 9.184941)
      (xy 3.909552 8.992701)
      (xy 3.696819 8.980088)
      (xy 3.538028 8.962543)
      (xy 3.415378 8.927104)
      (xy 3.31215 8.86712)
      (xy 3.229462 8.794145)
      (xy 3.192175 8.757469)
      (xy 3.160493 8.724928)
      (xy 3.133959 8.692028)
      (xy 3.112119 8.654276)
      (xy 3.094517 8.60718)
      (xy 3.080699 8.546248)
      (xy 3.07021 8.466986)
      (xy 3.062593 8.364901)
      (xy 3.057395 8.235502)
      (xy 3.054159 8.074295)
      (xy 3.052432 7.876788)
      (xy 3.051757 7.638488)
      (xy 3.05168 7.354901)
      (xy 3.051745 7.039841)
      (xy 3.051676 6.709127)
      (xy 3.051773 6.427963)
      (xy 3.052491 6.191855)
      (xy 3.054284 5.996311)
      (xy 3.057609 5.836837)
      (xy 3.06292 5.708942)
      (xy 3.070672 5.608132)
      (xy 3.081321 5.529916)
      (xy 3.095321 5.469799)
      (xy 3.113128 5.423289)
      (xy 3.135197 5.385894)
      (xy 3.161982 5.353121)
      (xy 3.19394 5.320477)
      (xy 3.229462 5.285536)
      (xy 3.330388 5.199463)
      (xy 3.437205 5.143953)
      (xy 3.566785 5.112258)
      (xy 3.69388 5.099763)
      (xy 3.903675 5.087321)
      (xy 3.89654 1.436187)
      (xy 3.895505 0.917916)
      (xy 3.8945 0.450937)
      (xy 3.893483 0.0325)
      (xy 3.892413 -0.340148)
      (xy 3.891246 -0.669755)
      (xy 3.889941 -0.959072)
      (xy 3.888456 -1.210851)
      (xy 3.886748 -1.427842)
      (xy 3.884774 -1.612795)
      (xy 3.882494 -1.768461)
      (xy 3.879863 -1.897591)
      (xy 3.876842 -2.002935)
      (xy 3.873386 -2.087244)
      (xy 3.869454 -2.153268)
      (xy 3.865003 -2.203759)
      (xy 3.859992 -2.241466)
      (xy 3.854378 -2.26914)
      (xy 3.848119 -2.289533)
      (xy 3.841172 -2.305394)
      (xy 3.839033 -2.309521)
      (xy 3.72358 -2.472133)
      (xy 3.573005 -2.595864)
      (xy 3.538128 -2.615985)
      (xy 3.430043 -2.674308)
      (xy -0.204319 -2.674308)
      (xy -0.204319 -3.120159)
      (xy 0.310961 -3.120143)
      (xy 0.775026 -3.120066)
      (xy 1.190704 -3.119889)
      (xy 1.560824 -3.119573)
      (xy 1.888214 -3.119076)
      (xy 2.175702 -3.118359)
      (xy 2.426116 -3.117382)
      (xy 2.642284 -3.116104)
      (xy 2.827035 -3.114487)
      (xy 2.983195 -3.112489)
      (xy 3.113594 -3.110071)
      (xy 3.221059 -3.107193)
      (xy 3.308419 -3.103815)
      (xy 3.378501 -3.099896)
      (xy 3.434134 -3.095397)
      (xy 3.478146 -3.090277)
      (xy 3.513364 -3.084498)
      (xy 3.542618 -3.078017)
      (xy 3.568734 -3.070796)
      (xy 3.582569 -3.066563)
      (xy 3.786954 -2.975621)
      (xy 3.97069 -2.840996)
      (xy 4.119086 -2.677931)
      (xy 4.119086 5.526649)
      (xy 3.926591 5.528057)
      (xy 3.78073 5.53322)
      (xy 3.674143 5.543543)
      (xy 3.599472 5.560434)
      (xy 3.549357 5.585299)
      (xy 3.516441 5.619544)
      (xy 3.502179 5.644572)
      (xy 3.495388 5.685397)
      (xy 3.489429 5.773814)
      (xy 3.484305 5.90338)
      (xy 3.480021 6.067651)
      (xy 3.476579 6.260182)
      (xy 3.473983 6.474532)
      (xy 3.472238 6.704255)
      (xy 3.471347 6.942908)
      (xy 3.471313 7.184047)
      (xy 3.472141 7.421229)
      (xy 3.473833 7.64801)
      (xy 3.476395 7.857945)
      (xy 3.479829 8.044592)
      (xy 3.484139 8.201506)
      (xy 3.489329 8.322244)
      (xy 3.495402 8.400362)
      (xy 3.500576 8.427185)
      (xy 3.526125 8.47008)
      (xy 3.563241 8.50215)
      (xy 3.619338 8.524904)
      (xy 3.701834 8.539853)
      (xy 3.818146 8.548505)
      (xy 3.975689 8.552368)
      (xy 4.119086 8.553032)
      (xy 4.310971 8.551685)
      (xy 4.456276 8.546639)
      (xy 4.562415 8.536384)
      (xy 4.636807 8.519411)
      (xy 4.686867 8.494211)
      (xy 4.720013 8.459275)
      (xy 4.737595 8.427185)
      (xy 4.744707 8.384644)
      (xy 4.75091 8.294557)
      (xy 4.756204 8.163412)
      (xy 4.76059 7.997699)
      (xy 4.764068 7.803905)
      (xy 4.766636 7.58852)
      (xy 4.768297 7.358032)
      (xy 4.769049 7.118931)
      (xy 4.768892 6.877704)
      (xy 4.767827 6.640841)
      (xy 4.765853 6.41483)
      (xy 4.762971 6.20616)
      (xy 4.75918 6.021319)
      (xy 4.75448 5.866797)
      (xy 4.748873 5.749082)
      (xy 4.742356 5.674662)
      (xy 4.737595 5.652496)
      (xy 4.712046 5.609602)
      (xy 4.674931 5.577532)
      (xy 4.618833 5.554777)
      (xy 4.536337 5.539828)
      (xy 4.420025 5.531177)
      (xy 4.262482 5.527313)
      (xy 4.119086 5.526649)
      (xy 4.119086 -2.677931)
      (xy 4.124661 -2.671805)
      (xy 4.239751 -2.477163)
      (xy 4.281659 -2.367473)
      (xy 4.289271 -2.341965)
      (xy 4.296127 -2.314854)
      (xy 4.302265 -2.283322)
      (xy 4.307725 -2.244553)
      (xy 4.312548 -2.19573)
      (xy 4.316772 -2.134035)
      (xy 4.320438 -2.056653)
      (xy 4.323584 -1.960765)
      (xy 4.326251 -1.843556)
      (xy 4.328478 -1.702209)
      (xy 4.330304 -1.533905)
      (xy 4.331769 -1.33583)
      (xy 4.332914 -1.105166)
      (xy 4.333776 -0.839095)
      (xy 4.334397 -0.534802)
      (xy 4.334815 -0.189468)
      (xy 4.33507 0.199721)
      (xy 4.335202 0.635585)
      (xy 4.33525 1.120938)
      (xy 4.335256 1.445811)
      (xy 4.335256 5.087365)
      (xy 4.544671 5.099785)
      (xy 4.703578 5.117684)
      (xy 4.82666 5.154248)
      (xy 4.930806 5.216238)
      (xy 5.008709 5.285536)
      (xy 5.045996 5.322212)
      (xy 5.077678 5.354754)
      (xy 5.104212 5.387654)
      (xy 5.126052 5.425405)
      (xy 5.143654 5.472501)
      (xy 5.157472 5.533434)
      (xy 5.167961 5.612696)
      (xy 5.175578 5.71478)
      (xy 5.180776 5.844179)
      (xy 5.184012 6.005386)
      (xy 5.185739 6.202893)
      (xy 5.186414 6.441194)
      (xy 5.186491 6.72478)
      (xy 5.186426 7.039841)
      (xy 5.186495 7.370554)
    )

    (stroke (width 0) (type solid)) (fill solid) (layer "F.SilkS") (tstamp fd0bed38-1de2-49e5-a769-6d4f4ed173d9))
  (fp_line (start -9.25 -12.9) (end 9.25 -12.9)
    (stroke (width 0.05) (type solid)) (layer "F.CrtYd") (tstamp ed27f95c-e97e-45a0-9758-cdb5afb11092))
  (fp_line (start -9.25 11.6) (end -9.25 -12.9)
    (stroke (width 0.05) (type solid)) (layer "F.CrtYd") (tstamp 085a6d88-faca-42d3-a897-a9f665020f5f))
  (fp_line (start 9.25 -12.9) (end 9.25 11.6)
    (stroke (width 0.05) (type solid)) (layer "F.CrtYd") (tstamp e1728b0b-40d6-406e-9e9e-a2647a27cc75))
  (fp_line (start 9.25 11.6) (end -9.25 11.6)
    (stroke (width 0.05) (type solid)) (layer "F.CrtYd") (tstamp e842cd2b-04d1-421f-af76-361bcf328a8d))
  (fp_line (start -9 11.35) (end -9 -11.35)
    (stroke (width 0.127) (type solid)) (layer "F.Fab") (tstamp 7ff4b5f5-a67f-4a2c-b6ea-cb211b6ba0be))
  (fp_line (start -4.5 -12.65) (end -4.5 -11.35)
    (stroke (width 0.127) (type solid)) (layer "F.Fab") (tstamp 280695a9-5903-4495-a382-63e08a7cb1bc))
  (fp_line (start -4.5 -11.35) (end -9 -11.35)
    (stroke (width 0.127) (type solid)) (layer "F.Fab") (tstamp 7345272e-eb61-4d2c-9dd6-aa4b4055b655))
  (fp_line (start 4.5 -12.65) (end -4.5 -12.65)
    (stroke (width 0.127) (type solid)) (layer "F.Fab") (tstamp 3b3d1f57-6aae-43e4-b818-6fbd6b60891e))
  (fp_line (start 4.5 -12.65) (end 4.5 -11.35)
    (stroke (width 0.127) (type solid)) (layer "F.Fab") (tstamp e916da26-484d-4b21-8ad5-ae920206279f))
  (fp_line (start 9 -11.35) (end 4.5 -11.35)
    (stroke (width 0.127) (type solid)) (layer "F.Fab") (tstamp 66e924e9-e2dd-4231-af0a-81dc3fddf186))
  (fp_line (start 9 11.35) (end -9 11.35)
    (stroke (width 0.127) (type solid)) (layer "F.Fab") (tstamp a7f41c3e-a50d-449e-9ae0-962701714c84))
  (fp_line (start 9 11.35) (end 9 -11.35)
    (stroke (width 0.127) (type solid)) (layer "F.Fab") (tstamp e09bd0eb-6c40-4845-aa71-2a1bf82487d2))
  (pad "0" thru_hole circle (at 7.62 7.88) (size 1.905 1.905) (drill 1.27) (layers "*.Cu" "*.Mask") (tstamp fdd2a976-c892-446f-a107-f657d5884a3f))
  (pad "1" thru_hole circle (at 7.62 5.34) (size 1.905 1.905) (drill 1.27) (layers "*.Cu" "*.Mask") (tstamp f4c61e4c-4f10-4c93-a15f-437fa429002f))
  (pad "2" thru_hole circle (at 7.62 2.8) (size 1.905 1.905) (drill 1.27) (layers "*.Cu" "*.Mask") (tstamp 57ba6cc3-5c6b-4e68-94ef-f7fa608cc78e))
  (pad "3" thru_hole circle (at 7.62 0.26) (size 1.905 1.905) (drill 1.27) (layers "*.Cu" "*.Mask") (tstamp b49ef082-4965-43e5-87e9-51cb9c719b3a))
  (pad "3.3" thru_hole circle (at 7.62 -4.82) (size 1.905 1.905) (drill 1.27) (layers "*.Cu" "*.Mask") (tstamp 9a3fa425-78d5-4af5-ba08-ea4563b68b69))
  (pad "4" thru_hole circle (at 7.62 -2.28) (size 1.905 1.905) (drill 1.27) (layers "*.Cu" "*.Mask") (tstamp b92f0bb5-5ad7-43fe-80ce-d57e2c28c066))
  (pad "5" thru_hole circle (at -7.62 -9.9) (size 1.905 1.905) (drill 1.27) (layers "*.Cu" "*.Mask") (tstamp 64877702-f1f9-488d-b539-b5b5696d8ebe))
  (pad "5V" thru_hole circle (at 7.62 -9.9) (size 1.905 1.905) (drill 1.27) (layers "*.Cu" "*.Mask") (tstamp f1877be9-eaa8-4456-87c2-c0df29481065))
  (pad "6" thru_hole circle (at -7.62 -7.36) (size 1.905 1.905) (drill 1.27) (layers "*.Cu" "*.Mask") (tstamp a59e5f50-f7a5-4289-b912-c31eea4cc79c))
  (pad "7" thru_hole circle (at -7.62 -4.82) (size 1.905 1.905) (drill 1.27) (layers "*.Cu" "*.Mask") (tstamp 72a768e6-1ae3-4400-888c-72fa058cc6df))
  (pad "8" thru_hole circle (at -7.62 -2.28) (size 1.905 1.905) (drill 1.27) (layers "*.Cu" "*.Mask") (tstamp 6175ffff-d3f2-4704-b68c-aad37fbe24d0))
  (pad "9" thru_hole circle (at -7.62 0.26) (size 1.905 1.905) (drill 1.27) (layers "*.Cu" "*.Mask") (tstamp 81de578c-7f7f-4119-8fb9-761af97bfe9a))
  (pad "10" thru_hole circle (at -7.62 2.8) (size 1.905 1.905) (drill 1.27) (layers "*.Cu" "*.Mask") (tstamp 12752a78-e4a7-4ef3-93bc-bdf2f831b924))
  (pad "20" thru_hole circle (at -7.62 5.34) (size 1.905 1.905) (drill 1.27) (layers "*.Cu" "*.Mask") (tstamp 030cd282-9d4e-4b84-8bc4-771ce8155472))
  (pad "21" thru_hole circle (at -7.62 7.88) (size 1.905 1.905) (drill 1.27) (layers "*.Cu" "*.Mask") (tstamp 745a9d28-474e-4fe9-80ba-06f12f3c75a0))
  (pad "G" thru_hole circle (at 7.62 -7.36) (size 1.905 1.905) (drill 1.27) (layers "*.Cu" "*.Mask") (tstamp 17a07d6e-e659-4a35-b26e-b5b29f1425ae))
  (model "${KIPRJMOD}/3d/ESP32-C3 supermini v5.step"
    (offset (xyz -20 -6.5 6))
    (scale (xyz 1 1 1))
    (rotate (xyz 90 -180 0))
  )
  (model ":KICAD7_3DMODEL_DIR:Connector_PinSocket_2.54mm.3dshapes/PinSocket_1x08_P2.54mm_Vertical.wrl"
    (offset (xyz -7.5 10 0))
    (scale (xyz 1 1 1))
    (rotate (xyz 0 0 0))
  )
  (model ":KICAD7_3DMODEL_DIR:Connector_PinSocket_2.54mm.3dshapes/PinSocket_1x08_P2.54mm_Vertical.wrl"
    (offset (xyz 7.5 10 0))
    (scale (xyz 1 1 1))
    (rotate (xyz 0 0 0))
  )
  (model ":KICAD7_3DMODEL_DIR:Connector_PinHeader_2.54mm.3dshapes/PinHeader_1x08_P2.54mm_Vertical.wrl"
    (offset (xyz -7.5 10 9))
    (scale (xyz 1 1 1))
    (rotate (xyz 0 -180 0))
  )
  (model ":KICAD7_3DMODEL_DIR:Connector_PinHeader_2.54mm.3dshapes/PinHeader_1x08_P2.54mm_Vertical.wrl"
    (offset (xyz 7.5 10 9))
    (scale (xyz 1 1 1))
    (rotate (xyz 0 -180 0))
  )
)
