(footprint "LegoHole_12x6u_4875" (version 20211014) (generator pcbnew)
  (layer "F.Cu")
  (tedit 61D86E9B)
  (descr "Mounting Hole 4.9mm, no annular")
  (tags "mounting hole 4.9mm, no annular")
  (property "Sheetfile" "m2x2-rev2.kicad_sch")
  (property "Sheetname" "")
  (attr exclude_from_pos_files)
  (fp_text reference "H1" (at 2.794 3.048) (layer "F.SilkS") hide
    (effects (font (size 1 1) (thickness 0.15)))
    (tstamp 0aae6e9c-cb97-4987-a70b-b5092e33137d)
  )
  (fp_text value "Lego" (at -5.08 2.54 90) (layer "F.Fab") hide
    (effects (font (size 1 1) (thickness 0.15)))
    (tstamp 97f4c906-6099-45db-93d0-2a695338ba85)
  )
  (fp_text user "${REFERENCE}" (at 32 -0.3 90) (layer "F.Fab")
    (effects (font (size 1 1) (thickness 0.15)))
    (tstamp 0103521f-5ab4-4e3d-9c69-cd615a61a0b6)
  )
  (fp_text user "${REFERENCE}" (at 80 -0.3 90) (layer "F.Fab")
    (effects (font (size 1 1) (thickness 0.15)))
    (tstamp 1a72880f-f244-467d-8b71-391a7b5ec221)
  )
  (fp_text user "${REFERENCE}" (at 56 40.3 270) (layer "F.Fab")
    (effects (font (size 1 1) (thickness 0.15)))
    (tstamp 216e37d2-0c1b-474d-a665-dd9b56948b88)
  )
  (fp_text user "${REFERENCE}" (at 0 -0.3 90) (layer "F.Fab")
    (effects (font (size 1 1) (thickness 0.15)))
    (tstamp 277ed9ab-5a19-4739-9cdc-31e79e76ecd4)
  )
  (fp_text user "${REFERENCE}" (at 88.3 8) (layer "F.Fab")
    (effects (font (size 1 1) (thickness 0.15)))
    (tstamp 2ca83319-5c81-433c-9d2f-acbbd458e838)
  )
  (fp_text user "${REFERENCE}" (at 48 -0.3 90) (layer "F.Fab")
    (effects (font (size 1 1) (thickness 0.15)))
    (tstamp 32fc7d90-42a9-4128-b709-197a066e1ab0)
  )
  (fp_text user "${REFERENCE}" (at 40 -0.3 90) (layer "F.Fab")
    (effects (font (size 1 1) (thickness 0.15)))
    (tstamp 3692d799-3204-491f-ac82-c255a2c6face)
  )
  (fp_text user "${REFERENCE}" (at 8 40.3 270) (layer "F.Fab")
    (effects (font (size 1 1) (thickness 0.15)))
    (tstamp 3a114077-39a2-4edb-8819-18f5a7cc7abe)
  )
  (fp_text user "${REFERENCE}" (at 88.3 16) (layer "F.Fab")
    (effects (font (size 1 1) (thickness 0.15)))
    (tstamp 426b3b81-9e41-4f55-85c5-6b75c8a44fdc)
  )
  (fp_text user "${REFERENCE}" (at 16 -0.3 90) (layer "F.Fab")
    (effects (font (size 1 1) (thickness 0.15)))
    (tstamp 45a4c19d-a37c-4674-b37e-c62b7d429510)
  )
  (fp_text user "${REFERENCE}" (at 80 40.3 270) (layer "F.Fab")
    (effects (font (size 1 1) (thickness 0.15)))
    (tstamp 49958df8-4eb7-40a4-8259-a0f00e48e836)
  )
  (fp_text user "${REFERENCE}" (at -0.3 16 180) (layer "F.Fab")
    (effects (font (size 1 1) (thickness 0.15)))
    (tstamp 49de2afc-a3f8-4f0a-870f-31e4107b4743)
  )
  (fp_text user "${REFERENCE}" (at 56 -0.3 90) (layer "F.Fab")
    (effects (font (size 1 1) (thickness 0.15)))
    (tstamp 5dd86b04-28e6-476e-8e80-7893d534ba3f)
  )
  (fp_text user "${REFERENCE}" (at 24 -0.3 90) (layer "F.Fab")
    (effects (font (size 1 1) (thickness 0.15)))
    (tstamp 74bb5668-84d9-47d2-8858-c68b9102b0cc)
  )
  (fp_text user "${REFERENCE}" (at 64 -0.3 90) (layer "F.Fab")
    (effects (font (size 1 1) (thickness 0.15)))
    (tstamp 81d486cc-fe78-4575-ba9a-9002030e8770)
  )
  (fp_text user "${REFERENCE}" (at 40 40.3 270) (layer "F.Fab")
    (effects (font (size 1 1) (thickness 0.15)))
    (tstamp 88542587-ce8d-4f57-8f90-fb40a7416166)
  )
  (fp_text user "${REFERENCE}" (at 8 -0.3 90) (layer "F.Fab")
    (effects (font (size 1 1) (thickness 0.15)))
    (tstamp 8f7274d3-6c20-4a4c-be08-db22d5a9a00c)
  )
  (fp_text user "${REFERENCE}" (at 88 40.3 270) (layer "F.Fab")
    (effects (font (size 1 1) (thickness 0.15)))
    (tstamp 90ee8ceb-f6fb-469e-9324-6786e701eb8a)
  )
  (fp_text user "${REFERENCE}" (at 32 40.3 270) (layer "F.Fab")
    (effects (font (size 1 1) (thickness 0.15)))
    (tstamp 9decbcdf-77e8-409a-912d-b18a22fea789)
  )
  (fp_text user "${REFERENCE}" (at 72 40.3 270) (layer "F.Fab")
    (effects (font (size 1 1) (thickness 0.15)))
    (tstamp 9f1a7573-0255-4908-9fda-7a801298fe8e)
  )
  (fp_text user "${REFERENCE}" (at 88.3 24) (layer "F.Fab")
    (effects (font (size 1 1) (thickness 0.15)))
    (tstamp a02f0bf2-a725-4149-b64c-f2dcbef31695)
  )
  (fp_text user "${REFERENCE}" (at -0.3 40 180) (layer "F.Fab")
    (effects (font (size 1 1) (thickness 0.15)))
    (tstamp a8a96f88-b510-41d8-9849-5209f0ef89e6)
  )
  (fp_text user "${REFERENCE}" (at 72 -0.3 90) (layer "F.Fab")
    (effects (font (size 1 1) (thickness 0.15)))
    (tstamp ac2596be-f822-4064-b4ff-a9310c147545)
  )
  (fp_text user "${REFERENCE}" (at -0.3 24 180) (layer "F.Fab")
    (effects (font (size 1 1) (thickness 0.15)))
    (tstamp ae9a0f83-1f9e-4b4f-b8a5-efe86ea72cad)
  )
  (fp_text user "${REFERENCE}" (at 88.3 0) (layer "F.Fab")
    (effects (font (size 1 1) (thickness 0.15)))
    (tstamp b271ed24-7d0b-4e1b-92cf-9377b4cb736b)
  )
  (fp_text user "${REFERENCE}" (at 48 40.3 270) (layer "F.Fab")
    (effects (font (size 1 1) (thickness 0.15)))
    (tstamp b446bb91-de68-4841-94d0-af553ca5f998)
  )
  (fp_text user "${REFERENCE}" (at 24 40.3 270) (layer "F.Fab")
    (effects (font (size 1 1) (thickness 0.15)))
    (tstamp d4f50648-c5a4-4271-921f-e050ed8732ab)
  )
  (fp_text user "${REFERENCE}" (at 64 40.3 270) (layer "F.Fab")
    (effects (font (size 1 1) (thickness 0.15)))
    (tstamp dc9a3129-f89f-4e63-866b-b257a3828627)
  )
  (fp_text user "${REFERENCE}" (at 16 40.3 270) (layer "F.Fab")
    (effects (font (size 1 1) (thickness 0.15)))
    (tstamp e0536832-d312-4648-b688-d7738e40d7b7)
  )
  (fp_text user "${REFERENCE}" (at -0.3 32 180) (layer "F.Fab")
    (effects (font (size 1 1) (thickness 0.15)))
    (tstamp e90fe032-a478-4bba-97f4-257d86d78406)
  )
  (fp_text user "${REFERENCE}" (at -0.3 8 180) (layer "F.Fab")
    (effects (font (size 1 1) (thickness 0.15)))
    (tstamp e9c64144-e65f-4d60-a885-fe9eb9823947)
  )
  (fp_text user "${REFERENCE}" (at 88.3 32) (layer "F.Fab")
    (effects (font (size 1 1) (thickness 0.15)))
    (tstamp fd44537f-0589-4bc1-b198-666960695764)
  )
  (fp_line (start -3.95 3.95) (end 3.95 3.95) (layer "F.SilkS") (width 0.1) (tstamp 0794900a-97c9-46de-a62f-fb58e34fc8a9))
  (fp_line (start 0 -3.95) (end 3.95 -3.95) (layer "F.SilkS") (width 0.1) (tstamp 0c0e561f-4415-404b-9b97-489c2519e5b4))
  (fp_line (start 88 -3.95) (end 84.05 -3.95) (layer "F.SilkS") (width 0.1) (tstamp 12d6c935-a86b-404e-b37c-c3a1984148a1))
  (fp_line (start 84.05 36.05) (end 84.05 43.95) (layer "F.SilkS") (width 0.1) (tstamp 3e5e5a01-251f-4036-95a2-8b86f399e7d0))
  (fp_line (start 91.95 40) (end 91.95 36.05) (layer "F.SilkS") (width 0.1) (tstamp 420421fd-ba19-4f22-8938-4f5a4b8dd9b4))
  (fp_line (start 84.05 3.95) (end 91.95 3.95) (layer "F.SilkS") (width 0.1) (tstamp 5128da94-ece1-4d9a-bdfb-7f3be2e5885a))
  (fp_line (start 3.95 43.95) (end 3.95 36.05) (layer "F.SilkS") (width 0.1) (tstamp 5f1dbccb-4aa3-4c48-a09a-92d6bbcbe09e))
  (fp_line (start -3.95 0) (end -3.95 3.95) (layer "F.SilkS") (width 0.1) (tstamp 716a2b73-e345-4021-8b43-e3cb2e0818b5))
  (fp_line (start 91.95 0) (end 91.95 3.95) (layer "F.SilkS") (width 0.1) (tstamp 739aa952-c4b3-40b2-a66d-12436bfc5fe7))
  (fp_line (start 88 43.95) (end 84.05 43.95) (layer "F.SilkS") (width 0.1) (tstamp 8bc9cca3-9b6b-49ba-86b9-177839a14351))
  (fp_line (start 91.95 36.05) (end 84.05 36.05) (layer "F.SilkS") (width 0.1) (tstamp 91233299-5f53-4793-b221-beec4205f4ca))
  (fp_line (start 3.95 36.05) (end -3.95 36.05) (layer "F.SilkS") (width 0.1) (tstamp beadbae3-0014-4128-b8a1-c69c86d72811))
  (fp_line (start 3.95 3.95) (end 3.95 -3.95) (layer "F.SilkS") (width 0.1) (tstamp cee4b32f-aa7b-4b42-b54a-2c07c1f62e10))
  (fp_line (start -3.95 40) (end -3.95 36.05) (layer "F.SilkS") (width 0.1) (tstamp e1d89d49-8b96-4b66-99a5-e1e628b76623))
  (fp_line (start 84.05 -3.95) (end 84.05 3.95) (layer "F.SilkS") (width 0.1) (tstamp e4cc8fdc-ed12-4700-8fdf-818c139441f4))
  (fp_line (start 0 43.95) (end 3.95 43.95) (layer "F.SilkS") (width 0.1) (tstamp f8e3eea0-627b-47ef-9ad0-7ab26b1d59d3))
  (fp_rect (start 4.05 3.95) (end 11.95 -3.95) (layer "F.SilkS") (width 0.1) (fill none) (tstamp 0283066a-9c75-4018-a913-da53d4af5cda))
  (fp_rect (start 83.95 36.05) (end 76.05 43.95) (layer "F.SilkS") (width 0.1) (fill none) (tstamp 0f8e7fef-da26-4a3b-82e7-255845d1c493))
  (fp_rect (start 3.95 27.95) (end -3.95 20.05) (layer "F.SilkS") (width 0.1) (fill none) (tstamp 10caf9df-6b46-4c33-9ad6-5a35dbf500f4))
  (fp_rect (start 3.95 35.95) (end -3.95 28.05) (layer "F.SilkS") (width 0.1) (fill none) (tstamp 28ba5c56-bfed-4161-8c6e-7c8c1b2f53c3))
  (fp_rect (start 43.95 36.05) (end 36.05 43.95) (layer "F.SilkS") (width 0.1) (fill none) (tstamp 32299ba9-54ec-4114-8bae-30bd1bf4ffd8))
  (fp_rect (start 11.95 36.05) (end 4.05 43.95) (layer "F.SilkS") (width 0.1) (fill none) (tstamp 362dd66a-3b92-409a-860d-1797743a0a69))
  (fp_rect (start 3.95 11.95) (end -3.95 4.05) (layer "F.SilkS") (width 0.1) (fill none) (tstamp 364ba562-aa61-4693-8ea2-ea21c0140b61))
  (fp_rect (start 20.05 3.95) (end 27.95 -3.95) (layer "F.SilkS") (width 0.1) (fill none) (tstamp 497f4833-9a43-48ae-ae7e-c361db25045c))
  (fp_rect (start 52.05 3.95) (end 59.95 -3.95) (layer "F.SilkS") (width 0.1) (fill none) (tstamp 4f37ca71-fbf7-450c-a8d9-48d9280dd06f))
  (fp_rect (start 84.05 20.05) (end 91.95 27.95) (layer "F.SilkS") (width 0.1) (fill none) (tstamp 554095f3-5d64-44ac-a721-43d2ceb954a0))
  (fp_rect (start 12.05 3.95) (end 19.95 -3.95) (layer "F.SilkS") (width 0.1) (fill none) (tstamp 58b8f30f-6ebb-4c40-b65c-0e34c02046d8))
  (fp_rect (start 51.95 36.05) (end 44.05 43.95) (layer "F.SilkS") (width 0.1) (fill none) (tstamp 5b95d2a7-735a-4189-832f-c0985afeaaac))
  (fp_rect (start 60.05 3.95) (end 67.95 -3.95) (layer "F.SilkS") (width 0.1) (fill none) (tstamp 5ebef02a-76db-4cef-8876-59cf07e57afb))
  (fp_rect (start 44.05 3.95) (end 51.95 -3.95) (layer "F.SilkS") (width 0.1) (fill none) (tstamp 5f24bd0f-5dd8-45b8-a573-e254f2e8784d))
  (fp_rect (start 75.95 36.05) (end 68.05 43.95) (layer "F.SilkS") (width 0.1) (fill none) (tstamp 6c09f2f1-eaf6-49b7-8e27-504f1bd47734))
  (fp_rect (start 84.05 4.05) (end 91.95 11.95) (layer "F.SilkS") (width 0.1) (fill none) (tstamp 8213f0ce-e0a7-47f2-8296-66c630748b18))
  (fp_rect (start 76.05 3.95) (end 83.95 -3.95) (layer "F.SilkS") (width 0.1) (fill none) (tstamp 823a7818-4d41-417b-8d76-a0ca853ee553))
  (fp_rect (start 67.95 36.05) (end 60.05 43.95) (layer "F.SilkS") (width 0.1) (fill none) (tstamp 8636c13b-7793-4515-97fb-36b39c9dd849))
  (fp_rect (start 27.95 36.05) (end 20.05 43.95) (layer "F.SilkS") (width 0.1) (fill none) (tstamp aa2ab983-ba4d-438c-b0ad-24fb0333645d))
  (fp_rect (start 59.95 36.05) (end 52.05 43.95) (layer "F.SilkS") (width 0.1) (fill none) (tstamp b48c83fd-3a88-4246-91e3-5d4712aff026))
  (fp_rect (start 84.05 12.05) (end 91.95 19.95) (layer "F.SilkS") (width 0.1) (fill none) (tstamp d96fe9d4-6700-4b1c-845b-b1fe9940a222))
  (fp_rect (start 68.05 3.95) (end 75.95 -3.95) (layer "F.SilkS") (width 0.1) (fill none) (tstamp daa59610-095e-4386-9f6b-99f042d4c583))
  (fp_rect (start 84.05 28.05) (end 91.95 35.95) (layer "F.SilkS") (width 0.1) (fill none) (tstamp e519b08d-2586-4c71-ac91-0668b465b283))
  (fp_rect (start 35.95 36.05) (end 28.05 43.95) (layer "F.SilkS") (width 0.1) (fill none) (tstamp e96f97ca-8a76-4df4-9045-17f8ae2f615a))
  (fp_rect (start 19.95 36.05) (end 12.05 43.95) (layer "F.SilkS") (width 0.1) (fill none) (tstamp ed041d8f-5287-4d83-ab89-1df924af80e5))
  (fp_rect (start 36.05 3.95) (end 43.95 -3.95) (layer "F.SilkS") (width 0.1) (fill none) (tstamp f0fd4ace-c218-4f79-a7e0-89c606105a1e))
  (fp_rect (start 3.95 19.95) (end -3.95 12.05) (layer "F.SilkS") (width 0.1) (fill none) (tstamp fa38135b-1db9-4012-a94a-91ef7d00ec61))
  (fp_rect (start 28.05 3.95) (end 35.95 -3.95) (layer "F.SilkS") (width 0.1) (fill none) (tstamp fd89847c-ab0a-46e0-9ff6-575335441113))
  (fp_arc (start 91.95 40) (mid 90.793072 42.793072) (end 88 43.95) (layer "F.SilkS") (width 0.1) (tstamp 1733e7f6-5317-41f0-95f1-022bee0d8be3))
  (fp_arc (start 0 43.95) (mid -2.793072 42.793072) (end -3.95 40) (layer "F.SilkS") (width 0.1) (tstamp 2a398b63-512f-4160-a655-a933d7a929d3))
  (fp_arc (start -3.95 0) (mid -2.793072 -2.793072) (end 0 -3.95) (layer "F.SilkS") (width 0.1) (tstamp b137d7e5-d8e7-4006-9eca-1ccc66a6e746))
  (fp_arc (start 88 -3.95) (mid 90.793072 -2.793072) (end 91.95 0) (layer "F.SilkS") (width 0.1) (tstamp ffbf2369-2ad9-4905-83cd-5daf0b7212da))
  (fp_line (start 84.1 3.9) (end 84.1 36.1) (layer "F.CrtYd") (width 0.12) (tstamp 0165513c-6f5b-4b3c-a30f-1ee036e9d547))
  (fp_line (start 3.9 36.1) (end 3.9 3.9) (layer "F.CrtYd") (width 0.12) (tstamp 08b257f1-da68-4569-9315-36114c01efdc))
  (fp_line (start -3.9 3.9) (end -3.9 40) (layer "F.CrtYd") (width 0.12) (tstamp 213d9a7d-bd01-4fb0-919b-dcbbb680cba1))
  (fp_line (start 3.9 43.9) (end 88 43.9) (layer "F.CrtYd") (width 0.12) (tstamp 248374c9-9cdb-4433-b132-fd42711ebc7f))
  (fp_line (start 84.1 36.1) (end 3.9 36.1) (layer "F.CrtYd") (width 0.12) (tstamp 4a87d410-6720-4d18-94fc-fa156a7f9c54))
  (fp_line (start 83.95 -3.9) (end 88 -3.9) (layer "F.CrtYd") (width 0.12) (tstamp 6c6a7bba-e36f-464a-9f85-f0be44e42117))
  (fp_line (start 3.9 43.9) (end 0 43.9) (layer "F.CrtYd") (width 0.12) (tstamp c389d55a-e180-4e64-a9aa-1fa422231c35))
  (fp_line (start 3.9 3.9) (end 84.1 3.9) (layer "F.CrtYd") (width 0.12) (tstamp dab546c9-bb51-4706-9601-0a09b8b9c0b8))
  (fp_line (start 91.9 40) (end 91.9 0) (layer "F.CrtYd") (width 0.12) (tstamp e783d74f-3ffe-4e77-b1c9-81706e97b861))
  (fp_line (start 83.95 -3.9) (end 0 -3.9) (layer "F.CrtYd") (width 0.12) (tstamp fafb069a-08c3-4075-9d4b-70f89fc61f00))
  (fp_line (start -3.9 3.9) (end -3.9 0) (layer "F.CrtYd") (width 0.12) (tstamp fd860a88-ac87-45d6-8c4e-b27ed19ffaed))
  (fp_arc (start -3.9 0) (mid -2.757716 -2.757716) (end 0 -3.9) (layer "F.CrtYd") (width 0.12) (tstamp 75e22069-caf3-451d-ad48-aa91a61a56cb))
  (fp_arc (start 88 -3.9) (mid 90.757716 -2.757716) (end 91.9 0) (layer "F.CrtYd") (width 0.12) (tstamp 858a0353-3aaa-4439-8147-dae7ae248d8b))
  (fp_arc (start 0 43.9) (mid -2.757716 42.757716) (end -3.9 40) (layer "F.CrtYd") (width 0.12) (tstamp 89301c63-15a6-422c-b23e-1dcedcaa763a))
  (fp_arc (start 91.9 40) (mid 90.757716 42.757716) (end 88 43.9) (layer "F.CrtYd") (width 0.12) (tstamp cf41ee16-ee7d-4e9c-8b89-0c3786bef6ad))
  (pad "" np_thru_hole circle (at 88 40 270) (size 4.875 4.875) (drill 4.875) (layers F&B.Cu *.Mask) (tstamp 02294ec9-2705-40c4-b108-610a7bf194b9))
  (pad "" np_thru_hole circle (at 80 40 270) (size 4.875 4.875) (drill 4.875) (layers F&B.Cu *.Mask) (tstamp 067472c3-5868-4933-982f-a92906d2fbc3))
  (pad "" np_thru_hole circle (at 64 40 270) (size 4.875 4.875) (drill 4.875) (layers F&B.Cu *.Mask) (tstamp 1671a297-ce8d-447e-8def-f83c1d295ab0))
  (pad "" np_thru_hole circle (at 88 16) (size 4.875 4.875) (drill 4.875) (layers F&B.Cu *.Mask) (tstamp 181774bb-5690-4c25-a78c-f52d70b9ba26))
  (pad "" np_thru_hole circle (at 88 32) (size 4.875 4.875) (drill 4.875) (layers F&B.Cu *.Mask) (tstamp 18b9ab55-2351-4fee-8285-453aa804a660))
  (pad "" np_thru_hole circle (at 72 0 90) (size 4.875 4.875) (drill 4.875) (layers F&B.Cu *.Mask) (tstamp 1c267152-bb26-4da2-b050-5d26eb948a35))
  (pad "" np_thru_hole circle (at 0 24 180) (size 4.875 4.875) (drill 4.875) (layers F&B.Cu *.Mask) (tstamp 1f50a3dd-cf94-436e-9ab5-1b07cb1474d2))
  (pad "" np_thru_hole circle (at 8 40 270) (size 4.875 4.875) (drill 4.875) (layers F&B.Cu *.Mask) (tstamp 270f3e0e-32be-426b-9bdb-9082c933b02f))
  (pad "" np_thru_hole circle (at 88 24) (size 4.875 4.875) (drill 4.875) (layers F&B.Cu *.Mask) (tstamp 2a3a1076-131c-4d82-99a5-974da12ed645))
  (pad "" np_thru_hole circle (at 72 40 270) (size 4.875 4.875) (drill 4.875) (layers F&B.Cu *.Mask) (tstamp 2c42ece2-515c-4a4d-9ac5-2faa9ff30d91))
  (pad "" np_thru_hole circle (at 64 0 90) (size 4.875 4.875) (drill 4.875) (layers F&B.Cu *.Mask) (tstamp 2d7495ec-2a24-4890-a6c8-c93c964d5888))
  (pad "" np_thru_hole circle (at 0 40 180) (size 4.875 4.875) (drill 4.875) (layers F&B.Cu *.Mask) (tstamp 3280b24e-4a65-4443-ab02-a145b10ebefc))
  (pad "" np_thru_hole circle (at 0 0 90) (size 5.875 5.875) (drill 4.875) (layers F&B.Cu *.Mask) (tstamp 3b07b5d6-7932-4e50-a45e-03d1f95412e0))
  (pad "" np_thru_hole circle (at 24 40 270) (size 4.875 4.875) (drill 4.875) (layers F&B.Cu *.Mask) (tstamp 417d5e54-127c-4670-b472-6ad086f2e4b8))
  (pad "" np_thru_hole circle (at 56 0 90) (size 4.875 4.875) (drill 4.875) (layers F&B.Cu *.Mask) (tstamp 420d070e-c61b-4f97-9157-7768aa59de6e))
  (pad "" np_thru_hole circle (at 88 8) (size 4.875 4.875) (drill 4.875) (layers F&B.Cu *.Mask) (tstamp 4e0116d2-9008-4167-a0f8-01e531fabbb8))
  (pad "" np_thru_hole circle (at 40 0 90) (size 4.875 4.875) (drill 4.875) (layers F&B.Cu *.Mask) (tstamp 5039be89-6852-42fb-99aa-a57d904ddb84))
  (pad "" np_thru_hole circle (at 16 0 90) (size 4.875 4.875) (drill 4.875) (layers F&B.Cu *.Mask) (tstamp 55ee77c3-b181-4587-8829-3f0108f4a7e6))
  (pad "" np_thru_hole circle (at 24 0 90) (size 4.875 4.875) (drill 4.875) (layers F&B.Cu *.Mask) (tstamp 6f818528-f163-473d-a05d-58104f0f50a0))
  (pad "" np_thru_hole circle (at 0 8 180) (size 4.875 4.875) (drill 4.875) (layers F&B.Cu *.Mask) (tstamp 74452354-af12-4187-9755-d8fc910a21fa))
  (pad "" np_thru_hole circle (at 56 40 270) (size 4.875 4.875) (drill 4.875) (layers F&B.Cu *.Mask) (tstamp 8742f841-32db-4bbc-8358-2b759d22f8d0))
  (pad "" np_thru_hole circle (at 32 0 90) (size 4.875 4.875) (drill 4.875) (layers F&B.Cu *.Mask) (tstamp 88ee89e0-22ea-46f0-b32c-8dc5f2e9e852))
  (pad "" np_thru_hole circle (at 48 40 270) (size 4.875 4.875) (drill 4.875) (layers F&B.Cu *.Mask) (tstamp 9a33c590-1511-4b92-8dc7-b357274e2d05))
  (pad "" np_thru_hole circle (at 0 16 180) (size 4.875 4.875) (drill 4.875) (layers F&B.Cu *.Mask) (tstamp a455bd2a-0a89-41ad-b705-1f19801e9c5f))
  (pad "" np_thru_hole circle (at 0 32 180) (size 4.875 4.875) (drill 4.875) (layers F&B.Cu *.Mask) (tstamp abf0eaf4-65e5-49ce-beab-62e4398d5719))
  (pad "" np_thru_hole circle (at 88 0) (size 4.875 4.875) (drill 4.875) (layers F&B.Cu *.Mask) (tstamp b672f1b4-6051-4f2f-a05d-9fac1429a25b))
  (pad "" np_thru_hole circle (at 40 40 270) (size 4.875 4.875) (drill 4.875) (layers F&B.Cu *.Mask) (tstamp bae2e7e3-7baa-4b7d-b515-3673bf3b4283))
  (pad "" np_thru_hole circle (at 80 0 90) (size 4.875 4.875) (drill 4.875) (layers F&B.Cu *.Mask) (tstamp cc1792ea-8c78-45b8-960c-2e697b3dcfc6))
  (pad "" np_thru_hole circle (at 32 40 270) (size 4.875 4.875) (drill 4.875) (layers F&B.Cu *.Mask) (tstamp cc977649-e7fa-456a-bee9-7da9105952d0))
  (pad "" np_thru_hole circle (at 16 40 270) (size 4.875 4.875) (drill 4.875) (layers F&B.Cu *.Mask) (tstamp d10e2da3-e7b3-4d89-84bc-53b4cd735a24))
  (pad "" np_thru_hole circle (at 48 0 90) (size 4.875 4.875) (drill 4.875) (layers F&B.Cu *.Mask) (tstamp e6550e6c-9b62-4159-a5c3-3b16a138a70e))
  (pad "" np_thru_hole circle (at 8 0 90) (size 4.875 4.875) (drill 4.875) (layers F&B.Cu *.Mask) (tstamp f498c09d-63df-4358-8ec4-3b8cbd71a804))
)
