(footprint "sig-copper" (version 20221018) (generator pcbnew)
  (layer "F.Cu")
  (attr smd board_only exclude_from_pos_files exclude_from_bom allow_missing_courtyard)
  (fp_text reference "G***" (at 0 0) (layer "F.Cu") hide
      (effects (font (size 1.524 1.524) (thickness 0.3)))
    (tstamp a97ee6b4-d8f7-4104-967a-def9886d2683)
  )
  (fp_text value "LOGO" (at 0.75 0) (layer "F.Cu") hide
      (effects (font (size 1.524 1.524) (thickness 0.3)))
    (tstamp d6d29732-c304-4435-a577-79ff4240a9de)
  )
  (fp_poly
    (pts
      (xy 3.651805 0.397888)
      (xy 3.783942 0.52506)
      (xy 3.869427 0.711197)
      (xy 3.888359 0.811041)
      (xy 3.954414 1.053435)
      (xy 4.083281 1.260344)
      (xy 4.257188 1.415878)
      (xy 4.458359 1.50415)
      (xy 4.669021 1.509268)
      (xy 4.669316 1.509209)
      (xy 4.785766 1.506173)
      (xy 4.821688 1.546443)
      (xy 4.76912 1.611651)
      (xy 4.725381 1.638564)
      (xy 4.53701 1.68664)
      (xy 4.322932 1.657335)
      (xy 4.108174 1.558764)
      (xy 3.917765 1.39904)
      (xy 3.891011 1.368085)
      (xy 3.746438 1.192692)
      (xy 3.635732 1.389667)
      (xy 3.492147 1.592152)
      (xy 3.334134 1.72667)
      (xy 3.176001 1.78627)
      (xy 3.032053 1.764004)
      (xy 2.965146 1.715384)
      (xy 2.873556 1.560325)
      (xy 2.843248 1.358927)
      (xy 2.85207 1.271657)
      (xy 3.033185 1.271657)
      (xy 3.042357 1.46256)
      (xy 3.078179 1.565564)
      (xy 3.150023 1.590669)
      (xy 3.267262 1.547875)
      (xy 3.283884 1.539156)
      (xy 3.362555 1.465599)
      (xy 3.46073 1.333228)
      (xy 3.558821 1.174324)
      (xy 3.637242 1.021167)
      (xy 3.676408 0.906037)
      (xy 3.677811 0.889926)
      (xy 3.656516 0.787693)
      (xy 3.604254 0.664448)
      (xy 3.539871 0.556256)
      (xy 3.482209 0.499181)
      (xy 3.472543 0.497064)
      (xy 3.335442 0.543459)
      (xy 3.211843 0.669444)
      (xy 3.112975 0.855225)
      (xy 3.050066 1.081006)
      (xy 3.033185 1.271657)
      (xy 2.85207 1.271657)
      (xy 2.866174 1.132126)
      (xy 2.934291 0.900853)
      (xy 3.039551 0.686043)
      (xy 3.173909 0.508628)
      (xy 3.329319 0.389542)
      (xy 3.490129 0.349516)
    )

    (stroke (width 0) (type solid)) (fill solid) (layer "F.Cu") (tstamp 9a0eaf07-17a9-4f3a-a1df-a4479cfef6bf))
  (fp_poly
    (pts
      (xy -2.864082 -2.575492)
      (xy -2.805906 -2.458468)
      (xy -2.759944 -2.265621)
      (xy -2.72492 -1.990463)
      (xy -2.699557 -1.626508)
      (xy -2.688588 -1.366928)
      (xy -2.677482 -1.059222)
      (xy -2.667227 -0.836707)
      (xy -2.655501 -0.685213)
      (xy -2.639981 -0.590569)
      (xy -2.618344 -0.538605)
      (xy -2.588267 -0.515148)
      (xy -2.547456 -0.506034)
      (xy -2.45456 -0.464693)
      (xy -2.440679 -0.402393)
      (xy -2.503213 -0.354938)
      (xy -2.558936 -0.347945)
      (xy -2.61401 -0.345604)
      (xy -2.654394 -0.328655)
      (xy -2.684723 -0.282207)
      (xy -2.709629 -0.191371)
      (xy -2.733745 -0.041257)
      (xy -2.761704 0.183024)
      (xy -2.784161 0.375864)
      (xy -2.809273 0.607607)
      (xy -2.819557 0.765634)
      (xy -2.813627 0.874729)
      (xy -2.7901 0.959677)
      (xy -2.74759 1.045263)
      (xy -2.746676 1.046902)
      (xy -2.620696 1.319005)
      (xy -2.534157 1.602205)
      (xy -2.490294 1.874022)
      (xy -2.492343 2.111973)
      (xy -2.543541 2.293575)
      (xy -2.562702 2.325143)
      (xy -2.64099 2.414437)
      (xy -2.715873 2.423705)
      (xy -2.821165 2.355914)
      (xy -2.830215 2.34863)
      (xy -2.918405 2.23855)
      (xy -2.97887 2.067588)
      (xy -3.013736 1.824913)
      (xy -3.025127 1.499692)
      (xy -3.023902 1.361023)
      (xy -3.021987 1.124636)
      (xy -3.022261 1.118395)
      (xy -2.881834 1.118395)
      (xy -2.866928 1.565753)
      (xy -2.849614 1.825378)
      (xy -2.818853 2.025699)
      (xy -2.777829 2.156956)
      (xy -2.729728 2.209394)
      (xy -2.677733 2.173255)
      (xy -2.671891 2.163414)
      (xy -2.648119 2.064335)
      (xy -2.642643 1.910068)
      (xy -2.648918 1.812659)
      (xy -2.686737 1.608583)
      (xy -2.750167 1.402685)
      (xy -2.77887 1.334787)
      (xy -2.881834 1.118395)
      (xy -3.022261 1.118395)
      (xy -3.029197 0.960293)
      (xy -3.050024 0.840734)
      (xy -3.088959 0.738696)
      (xy -3.142663 0.640219)
      (xy -3.259043 0.461784)
      (xy -3.363913 0.337615)
      (xy -3.446051 0.278342)
      (xy -3.494234 0.294592)
      (xy -3.497751 0.303899)
      (xy -3.519075 0.381534)
      (xy -3.558108 0.528245)
      (xy -3.607646 0.716871)
      (xy -3.625575 0.785629)
      (xy -3.747491 1.177039)
      (xy -3.885302 1.479038)
      (xy -4.037129 1.689658)
      (xy -4.201095 1.80693)
      (xy -4.375321 1.828886)
      (xy -4.552754 1.756986)
      (xy -4.716028 1.597586)
      (xy -4.822128 1.367927)
      (xy -4.873101 1.062341)
      (xy -4.878327 0.855697)
      (xy -4.851817 0.542089)
      (xy -4.78587 0.261631)
      (xy -4.68756 0.028898)
      (xy -4.56396 -0.141536)
      (xy -4.422144 -0.235097)
      (xy -4.3424 -0.248532)
      (xy -4.230044 -0.205092)
      (xy -4.147736 -0.099742)
      (xy -4.125636 -0.003268)
      (xy -4.156407 0.045885)
      (xy -4.226368 0.032894)
      (xy -4.299015 -0.032447)
      (xy -4.366501 -0.084712)
      (xy -4.439808 -0.054197)
      (xy -4.526746 0.064441)
      (xy -4.577592 0.15813)
      (xy -4.68083 0.431131)
      (xy -4.730851 0.723523)
      (xy -4.728345 1.010307)
      (xy -4.674002 1.266484)
      (xy -4.568512 1.467053)
      (xy -4.540591 1.499074)
      (xy -4.398491 1.610026)
      (xy -4.266173 1.631419)
      (xy -4.139307 1.560857)
      (xy -4.013563 1.395941)
      (xy -3.885568 1.136532)
      (xy -3.813467 0.942054)
      (xy -3.747362 0.719914)
      (xy -3.693298 0.496738)
      (xy -3.657318 0.29915)
      (xy -3.645467 0.153775)
      (xy -3.651505 0.105461)
      (xy -3.651421 -0.008231)
      (xy -3.634819 -0.058141)
      (xy -3.429746 -0.058141)
      (xy -3.394667 0.041826)
      (xy -3.323886 0.128989)
      (xy -3.231131 0.230226)
      (xy -3.125306 0.370694)
      (xy -3.090746 0.422505)
      (xy -2.963466 0.621331)
      (xy -2.928955 0.447358)
      (xy -2.905757 0.300687)
      (xy -2.882216 0.105342)
      (xy -2.86857 -0.03728)
      (xy -2.856172 -0.206406)
      (xy -2.859968 -0.299296)
      (xy -2.887756 -0.338771)
      (xy -2.947335 -0.347652)
      (xy -2.974675 -0.34776)
      (xy -3.116474 -0.320117)
      (xy -3.260594 -0.251015)
      (xy -3.375316 -0.160638)
      (xy -3.42892 -0.069175)
      (xy -3.429746 -0.058141)
      (xy -3.634819 -0.058141)
      (xy -3.606122 -0.144414)
      (xy -3.603949 -0.148675)
      (xy -3.566889 -0.255384)
      (xy -3.522714 -0.43654)
      (xy -3.522249 -0.438874)
      (xy -3.363797 -0.438874)
      (xy -3.235225 -0.470982)
      (xy -3.082968 -0.506386)
      (xy -2.966367 -0.531099)
      (xy -2.826081 -0.559109)
      (xy -2.838687 -1.261257)
      (xy -2.847607 -1.537288)
      (xy -2.863133 -1.79756)
      (xy -2.883236 -2.016011)
      (xy -2.905885 -2.166574)
      (xy -2.910764 -2.187084)
      (xy -2.970235 -2.410763)
      (xy -3.047388 -2.234296)
      (xy -3.095498 -2.086392)
      (xy -3.149378 -1.855733)
      (xy -3.205966 -1.558586)
      (xy -3.262197 -1.211216)
      (xy -3.315011 -0.829888)
      (xy -3.32147 -0.778635)
      (xy -3.363797 -0.438874)
      (xy -3.522249 -0.438874)
      (xy -3.476651 -0.667949)
      (xy -3.433925 -0.925413)
      (xy -3.428982 -0.958889)
      (xy -3.372503 -1.33972)
      (xy -3.325269 -1.637448)
      (xy -3.283982 -1.867586)
      (xy -3.245346 -2.045651)
      (xy -3.206066 -2.187158)
      (xy -3.162846 -2.307621)
      (xy -3.122799 -2.400179)
      (xy -3.033621 -2.558638)
      (xy -2.95599 -2.622727)
      (xy -2.935749 -2.623179)
    )

    (stroke (width 0) (type solid)) (fill solid) (layer "F.Cu") (tstamp a585d943-a3f8-4ca6-a71d-3caa60a61330))
  (fp_poly
    (pts
      (xy -1.190991 -1.912023)
      (xy -1.090155 -1.821105)
      (xy -1.052322 -1.757372)
      (xy -1.022167 -1.66081)
      (xy -1.064387 -1.594178)
      (xy -1.125733 -1.572415)
      (xy -1.193689 -1.624722)
      (xy -1.229992 -1.671362)
      (xy -1.327429 -1.805121)
      (xy -1.459247 -1.710291)
      (xy -1.624266 -1.554281)
      (xy -1.77629 -1.344487)
      (xy -1.902874 -1.107046)
      (xy -1.991572 -0.868095)
      (xy -2.029938 -0.653771)
      (xy -2.020163 -0.532314)
      (xy -1.938406 -0.394511)
      (xy -1.789346 -0.304335)
      (xy -1.598875 -0.274814)
      (xy -1.522526 -0.281963)
      (xy -1.402158 -0.292125)
      (xy -1.353081 -0.265792)
      (xy -1.375558 -0.193644)
      (xy -1.46985 -0.066362)
      (xy -1.530629 0.005428)
      (xy -1.789268 0.320174)
      (xy -1.974289 0.584167)
      (xy -2.090173 0.808163)
      (xy -2.141403 1.002919)
      (xy -2.132459 1.179192)
      (xy -2.080082 1.324157)
      (xy -1.967051 1.448346)
      (xy -1.795146 1.521352)
      (xy -1.594025 1.537214)
      (xy -1.393343 1.489976)
      (xy -1.352033 1.470437)
      (xy -1.178062 1.350394)
      (xy -1.006399 1.183817)
      (xy -0.85622 0.995302)
      (xy -0.746698 0.809441)
      (xy -0.697009 0.650828)
      (xy -0.695891 0.62885)
      (xy -0.681996 0.490789)
      (xy -0.647368 0.298239)
      (xy -0.493585 0.298239)
      (xy -0.47799 0.303584)
      (xy -0.434844 0.227851)
      (xy -0.369443 0.083793)
      (xy -0.287079 -0.115837)
      (xy -0.193046 -0.358286)
      (xy -0.092636 -0.630801)
      (xy -0.007422 -0.873078)
      (xy 0.094098 -1.17598)
      (xy 0.160305 -1.394028)
      (xy 0.192562 -1.534769)
      (xy 0.192231 -1.60575)
      (xy 0.160676 -1.614517)
      (xy 0.121805 -1.588565)
      (xy 0.034127 -1.475879)
      (xy -0.061777 -1.284654)
      (xy -0.157194 -1.034306)
      (xy -0.222992 -0.820157)
      (xy -0.301471 -0.531554)
      (xy -0.372128 -0.258682)
      (xy -0.430479 -0.02008)
      (xy -0.472038 0.165712)
      (xy -0.49232 0.280155)
      (xy -0.493585 0.298239)
      (xy -0.647368 0.298239)
      (xy -0.643937 0.27916)
      (xy -0.587157 0.015297)
      (xy -0.517095 -0.279467)
      (xy -0.439195 -0.583798)
      (xy -0.358895 -0.87636)
      (xy -0.281639 -1.13582)
      (xy -0.212866 -1.340844)
      (xy -0.162949 -1.460744)
      (xy -0.059604 -1.618783)
      (xy 0.0627 -1.741452)
      (xy 0.18537 -1.817576)
      (xy 0.289811 -1.835981)
      (xy 0.357429 -1.785494)
      (xy 0.36156 -1.775942)
      (xy 0.360763 -1.688459)
      (xy 0.328167 -1.524931)
      (xy 0.269212 -1.301489)
      (xy 0.189342 -1.034261)
      (xy 0.093998 -0.739378)
      (xy -0.011379 -0.432969)
      (xy -0.121346 -0.131164)
      (xy -0.230462 0.149908)
      (xy -0.333285 0.394118)
      (xy -0.424373 0.585335)
      (xy -0.452384 0.636598)
      (xy -0.532762 0.829078)
      (xy -0.528803 1.003018)
      (xy -0.447903 1.180528)
      (xy -0.33321 1.306585)
      (xy -0.19817 1.337739)
      (xy -0.038922 1.27408)
      (xy 0.067417 1.192558)
      (xy 0.1568 1.107095)
      (xy 0.209724 1.025583)
      (xy 0.237799 0.91669)
      (xy 0.252637 0.749081)
      (xy 0.256222 0.683067)
      (xy 0.261383 0.642994)
      (xy 0.403175 0.642994)
      (xy 0.411244 0.68247)
      (xy 0.450319 0.655845)
      (xy 0.460072 0.646184)
      (xy 0.518287 0.556793)
      (xy 0.583718 0.412622)
      (xy 0.615254 0.325853)
      (xy 0.66139 0.14566)
      (xy 0.65596 0.04303)
      (xy 0.6476 0.031241)
      (xy 0.599994 0.036995)
      (xy 0.542893 0.121459)
      (xy 0.485069 0.265619)
      (xy 0.435291 0.450462)
      (xy 0.421274 0.521918)
      (xy 0.403175 0.642994)
      (xy 0.261383 0.642994)
      (xy 0.293444 0.394075)
      (xy 0.368659 0.146571)
      (xy 0.473914 -0.038561)
      (xy 0.562262 -0.120528)
      (xy 0.67376 -0.142326)
      (xy 0.774273 -0.084837)
      (xy 0.834149 0.03358)
      (xy 0.836983 0.049549)
      (xy 0.825478 0.149747)
      (xy 0.780326 0.309559)
      (xy 0.712429 0.499729)
      (xy 0.632693 0.691)
      (xy 0.55202 0.854116)
      (xy 0.513248 0.918203)
      (xy 0.46522 1.044173)
      (xy 0.449369 1.202425)
      (xy 0.466231 1.348897)
      (xy 0.507005 1.431546)
      (xy 0.591317 1.491772)
      (xy 0.671247 1.48838)
      (xy 0.75563 1.413609)
      (xy 0.853301 1.259694)
      (xy 0.970603 1.024215)
      (xy 1.105291 0.764007)
      (xy 1.238998 0.556588)
      (xy 1.362038 0.414666)
      (xy 1.464726 0.350946)
      (xy 1.48547 0.348706)
      (xy 1.587001 0.39919)
      (xy 1.681331 0.546418)
      (xy 1.737718 0.689959)
      (xy 1.823932 0.94463)
      (xy 1.973194 0.658714)
      (xy 2.073595 0.494624)
      (xy 2.181583 0.361195)
      (xy 2.256989 0.298239)
      (xy 2.356112 0.252286)
      (xy 2.415734 0.265424)
      (xy 2.463275 0.320166)
      (xy 2.510072 0.446741)
      (xy 2.533163 0.667362)
      (xy 2.535708 0.792377)
      (xy 2.541356 1.054188)
      (xy 2.559634 1.230892)
      (xy 2.594214 1.33639)
      (xy 2.64877 1.384582)
      (xy 2.694088 1.391781)
      (xy 2.764143 1.417519)
      (xy 2.757331 1.479912)
      (xy 2.676879 1.556724)
      (xy 2.669454 1.561512)
      (xy 2.589491 1.582733)
      (xy 2.502127 1.529229)
      (xy 2.479695 1.507657)
      (xy 2.428408 1.444161)
      (xy 2.395979 1.362524)
      (xy 2.377776 1.239247)
      (xy 2.369166 1.050829)
      (xy 2.367164 0.936723)
      (xy 2.357733 0.68898)
      (xy 2.334957 0.535296)
      (xy 2.295488 0.475743)
      (xy 2.235976 0.510392)
      (xy 2.153071 0.639315)
      (xy 2.043424 0.862583)
      (xy 2.006399 0.944423)
      (xy 1.890614 1.200839)
      (xy 1.805664 1.379498)
      (xy 1.74339 1.494087)
      (xy 1.695633 1.558295)
      (xy 1.654235 1.58581)
      (xy 1.621279 1.590606)
      (xy 1.588601 1.570728)
      (xy 1.571503 1.500192)
      (xy 1.568306 1.362653)
      (xy 1.57658 1.155675)
      (xy 1.584663 0.92895)
      (xy 1.578262 0.777988)
      (xy 1.554969 0.679876)
      (xy 1.52042 0.621331)
      (xy 1.465673 0.561431)
      (xy 1.420284 0.560937)
      (xy 1.353882 0.627278)
      (xy 1.317254 0.671037)
      (xy 1.236859 0.784031)
      (xy 1.194924 0.874504)
      (xy 1.193201 0.88761)
      (xy 1.168498 0.990085)
      (xy 1.10533 1.141331)
      (xy 1.019363 1.311965)
      (xy 0.926263 1.472603)
      (xy 0.841695 1.593862)
      (xy 0.790556 1.642854)
      (xy 0.620282 1.68696)
      (xy 0.465117 1.643267)
      (xy 0.351189 1.519289)
      (xy 0.349513 1.516047)
      (xy 0.294656 1.409336)
      (xy 0.262983 1.349105)
      (xy 0.261858 1.347116)
      (xy 0.215724 1.356754)
      (xy 0.110533 1.403176)
      (xy 0.032055 1.4431)
      (xy -0.190629 1.5228)
      (xy -0.380909 1.508601)
      (xy -0.538482 1.400576)
      (xy -0.621163 1.283775)
      (xy -0.721689 1.104562)
      (xy -0.944896 1.345547)
      (xy -1.202444 1.573219)
      (xy -1.461571 1.701608)
      (xy -1.722673 1.730838)
      (xy -1.974853 1.666032)
      (xy -2.141661 1.545825)
      (xy -2.269409 1.365479)
      (xy -2.333057 1.163276)
      (xy -2.336018 1.113908)
      (xy -2.306878 0.958742)
      (xy -2.228421 0.754854)
      (xy -2.114529 0.53026)
      (xy -1.979085 0.312974)
      (xy -1.865413 0.164251)
      (xy -1.752213 0.027336)
      (xy -1.702342 -0.051959)
      (xy -1.711656 -0.08902)
      (xy -1.776009 -0.099237)
      (xy -1.794404 -0.099413)
      (xy -1.889416 -0.13308)
      (xy -2.012436 -0.218567)
      (xy -2.073951 -0.274577)
      (xy -2.178744 -0.38861)
      (xy -2.224328 -0.479662)
      (xy -2.22643 -0.59008)
      (xy -2.217009 -0.659802)
      (xy -2.158968 -0.886024)
      (xy -2.058063 -1.127795)
      (xy -1.926715 -1.367051)
      (xy -1.777347 -1.585728)
      (xy -1.62238 -1.765763)
      (xy -1.474237 -1.889092)
      (xy -1.34534 -1.937651)
      (xy -1.338169 -1.937791)
    )

    (stroke (width 0) (type solid)) (fill solid) (layer "F.Cu") (tstamp b1523b28-ac87-44fb-96cb-bb18c63edde5))
  (fp_poly
    (pts
      (xy 3.651805 0.397888)
      (xy 3.783942 0.52506)
      (xy 3.869427 0.711197)
      (xy 3.888359 0.811041)
      (xy 3.954414 1.053435)
      (xy 4.083281 1.260344)
      (xy 4.257188 1.415878)
      (xy 4.458359 1.50415)
      (xy 4.669021 1.509268)
      (xy 4.669316 1.509209)
      (xy 4.785766 1.506173)
      (xy 4.821688 1.546443)
      (xy 4.76912 1.611651)
      (xy 4.725381 1.638564)
      (xy 4.53701 1.68664)
      (xy 4.322932 1.657335)
      (xy 4.108174 1.558764)
      (xy 3.917765 1.39904)
      (xy 3.891011 1.368085)
      (xy 3.746438 1.192692)
      (xy 3.635732 1.389667)
      (xy 3.492147 1.592152)
      (xy 3.334134 1.72667)
      (xy 3.176001 1.78627)
      (xy 3.032053 1.764004)
      (xy 2.965146 1.715384)
      (xy 2.873556 1.560325)
      (xy 2.843248 1.358927)
      (xy 2.85207 1.271657)
      (xy 3.033185 1.271657)
      (xy 3.042357 1.46256)
      (xy 3.078179 1.565564)
      (xy 3.150023 1.590669)
      (xy 3.267262 1.547875)
      (xy 3.283884 1.539156)
      (xy 3.362555 1.465599)
      (xy 3.46073 1.333228)
      (xy 3.558821 1.174324)
      (xy 3.637242 1.021167)
      (xy 3.676408 0.906037)
      (xy 3.677811 0.889926)
      (xy 3.656516 0.787693)
      (xy 3.604254 0.664448)
      (xy 3.539871 0.556256)
      (xy 3.482209 0.499181)
      (xy 3.472543 0.497064)
      (xy 3.335442 0.543459)
      (xy 3.211843 0.669444)
      (xy 3.112975 0.855225)
      (xy 3.050066 1.081006)
      (xy 3.033185 1.271657)
      (xy 2.85207 1.271657)
      (xy 2.866174 1.132126)
      (xy 2.934291 0.900853)
      (xy 3.039551 0.686043)
      (xy 3.173909 0.508628)
      (xy 3.329319 0.389542)
      (xy 3.490129 0.349516)
    )

    (stroke (width 0) (type solid)) (fill solid) (layer "F.Mask") (tstamp 9a0eaf07-17a9-4f3a-a1df-a4479cfef6bf))
  (fp_poly
    (pts
      (xy -2.864082 -2.575492)
      (xy -2.805906 -2.458468)
      (xy -2.759944 -2.265621)
      (xy -2.72492 -1.990463)
      (xy -2.699557 -1.626508)
      (xy -2.688588 -1.366928)
      (xy -2.677482 -1.059222)
      (xy -2.667227 -0.836707)
      (xy -2.655501 -0.685213)
      (xy -2.639981 -0.590569)
      (xy -2.618344 -0.538605)
      (xy -2.588267 -0.515148)
      (xy -2.547456 -0.506034)
      (xy -2.45456 -0.464693)
      (xy -2.440679 -0.402393)
      (xy -2.503213 -0.354938)
      (xy -2.558936 -0.347945)
      (xy -2.61401 -0.345604)
      (xy -2.654394 -0.328655)
      (xy -2.684723 -0.282207)
      (xy -2.709629 -0.191371)
      (xy -2.733745 -0.041257)
      (xy -2.761704 0.183024)
      (xy -2.784161 0.375864)
      (xy -2.809273 0.607607)
      (xy -2.819557 0.765634)
      (xy -2.813627 0.874729)
      (xy -2.7901 0.959677)
      (xy -2.74759 1.045263)
      (xy -2.746676 1.046902)
      (xy -2.620696 1.319005)
      (xy -2.534157 1.602205)
      (xy -2.490294 1.874022)
      (xy -2.492343 2.111973)
      (xy -2.543541 2.293575)
      (xy -2.562702 2.325143)
      (xy -2.64099 2.414437)
      (xy -2.715873 2.423705)
      (xy -2.821165 2.355914)
      (xy -2.830215 2.34863)
      (xy -2.918405 2.23855)
      (xy -2.97887 2.067588)
      (xy -3.013736 1.824913)
      (xy -3.025127 1.499692)
      (xy -3.023902 1.361023)
      (xy -3.021987 1.124636)
      (xy -3.022261 1.118395)
      (xy -2.881834 1.118395)
      (xy -2.866928 1.565753)
      (xy -2.849614 1.825378)
      (xy -2.818853 2.025699)
      (xy -2.777829 2.156956)
      (xy -2.729728 2.209394)
      (xy -2.677733 2.173255)
      (xy -2.671891 2.163414)
      (xy -2.648119 2.064335)
      (xy -2.642643 1.910068)
      (xy -2.648918 1.812659)
      (xy -2.686737 1.608583)
      (xy -2.750167 1.402685)
      (xy -2.77887 1.334787)
      (xy -2.881834 1.118395)
      (xy -3.022261 1.118395)
      (xy -3.029197 0.960293)
      (xy -3.050024 0.840734)
      (xy -3.088959 0.738696)
      (xy -3.142663 0.640219)
      (xy -3.259043 0.461784)
      (xy -3.363913 0.337615)
      (xy -3.446051 0.278342)
      (xy -3.494234 0.294592)
      (xy -3.497751 0.303899)
      (xy -3.519075 0.381534)
      (xy -3.558108 0.528245)
      (xy -3.607646 0.716871)
      (xy -3.625575 0.785629)
      (xy -3.747491 1.177039)
      (xy -3.885302 1.479038)
      (xy -4.037129 1.689658)
      (xy -4.201095 1.80693)
      (xy -4.375321 1.828886)
      (xy -4.552754 1.756986)
      (xy -4.716028 1.597586)
      (xy -4.822128 1.367927)
      (xy -4.873101 1.062341)
      (xy -4.878327 0.855697)
      (xy -4.851817 0.542089)
      (xy -4.78587 0.261631)
      (xy -4.68756 0.028898)
      (xy -4.56396 -0.141536)
      (xy -4.422144 -0.235097)
      (xy -4.3424 -0.248532)
      (xy -4.230044 -0.205092)
      (xy -4.147736 -0.099742)
      (xy -4.125636 -0.003268)
      (xy -4.156407 0.045885)
      (xy -4.226368 0.032894)
      (xy -4.299015 -0.032447)
      (xy -4.366501 -0.084712)
      (xy -4.439808 -0.054197)
      (xy -4.526746 0.064441)
      (xy -4.577592 0.15813)
      (xy -4.68083 0.431131)
      (xy -4.730851 0.723523)
      (xy -4.728345 1.010307)
      (xy -4.674002 1.266484)
      (xy -4.568512 1.467053)
      (xy -4.540591 1.499074)
      (xy -4.398491 1.610026)
      (xy -4.266173 1.631419)
      (xy -4.139307 1.560857)
      (xy -4.013563 1.395941)
      (xy -3.885568 1.136532)
      (xy -3.813467 0.942054)
      (xy -3.747362 0.719914)
      (xy -3.693298 0.496738)
      (xy -3.657318 0.29915)
      (xy -3.645467 0.153775)
      (xy -3.651505 0.105461)
      (xy -3.651421 -0.008231)
      (xy -3.634819 -0.058141)
      (xy -3.429746 -0.058141)
      (xy -3.394667 0.041826)
      (xy -3.323886 0.128989)
      (xy -3.231131 0.230226)
      (xy -3.125306 0.370694)
      (xy -3.090746 0.422505)
      (xy -2.963466 0.621331)
      (xy -2.928955 0.447358)
      (xy -2.905757 0.300687)
      (xy -2.882216 0.105342)
      (xy -2.86857 -0.03728)
      (xy -2.856172 -0.206406)
      (xy -2.859968 -0.299296)
      (xy -2.887756 -0.338771)
      (xy -2.947335 -0.347652)
      (xy -2.974675 -0.34776)
      (xy -3.116474 -0.320117)
      (xy -3.260594 -0.251015)
      (xy -3.375316 -0.160638)
      (xy -3.42892 -0.069175)
      (xy -3.429746 -0.058141)
      (xy -3.634819 -0.058141)
      (xy -3.606122 -0.144414)
      (xy -3.603949 -0.148675)
      (xy -3.566889 -0.255384)
      (xy -3.522714 -0.43654)
      (xy -3.522249 -0.438874)
      (xy -3.363797 -0.438874)
      (xy -3.235225 -0.470982)
      (xy -3.082968 -0.506386)
      (xy -2.966367 -0.531099)
      (xy -2.826081 -0.559109)
      (xy -2.838687 -1.261257)
      (xy -2.847607 -1.537288)
      (xy -2.863133 -1.79756)
      (xy -2.883236 -2.016011)
      (xy -2.905885 -2.166574)
      (xy -2.910764 -2.187084)
      (xy -2.970235 -2.410763)
      (xy -3.047388 -2.234296)
      (xy -3.095498 -2.086392)
      (xy -3.149378 -1.855733)
      (xy -3.205966 -1.558586)
      (xy -3.262197 -1.211216)
      (xy -3.315011 -0.829888)
      (xy -3.32147 -0.778635)
      (xy -3.363797 -0.438874)
      (xy -3.522249 -0.438874)
      (xy -3.476651 -0.667949)
      (xy -3.433925 -0.925413)
      (xy -3.428982 -0.958889)
      (xy -3.372503 -1.33972)
      (xy -3.325269 -1.637448)
      (xy -3.283982 -1.867586)
      (xy -3.245346 -2.045651)
      (xy -3.206066 -2.187158)
      (xy -3.162846 -2.307621)
      (xy -3.122799 -2.400179)
      (xy -3.033621 -2.558638)
      (xy -2.95599 -2.622727)
      (xy -2.935749 -2.623179)
    )

    (stroke (width 0) (type solid)) (fill solid) (layer "F.Mask") (tstamp a585d943-a3f8-4ca6-a71d-3caa60a61330))
  (fp_poly
    (pts
      (xy -1.190991 -1.912023)
      (xy -1.090155 -1.821105)
      (xy -1.052322 -1.757372)
      (xy -1.022167 -1.66081)
      (xy -1.064387 -1.594178)
      (xy -1.125733 -1.572415)
      (xy -1.193689 -1.624722)
      (xy -1.229992 -1.671362)
      (xy -1.327429 -1.805121)
      (xy -1.459247 -1.710291)
      (xy -1.624266 -1.554281)
      (xy -1.77629 -1.344487)
      (xy -1.902874 -1.107046)
      (xy -1.991572 -0.868095)
      (xy -2.029938 -0.653771)
      (xy -2.020163 -0.532314)
      (xy -1.938406 -0.394511)
      (xy -1.789346 -0.304335)
      (xy -1.598875 -0.274814)
      (xy -1.522526 -0.281963)
      (xy -1.402158 -0.292125)
      (xy -1.353081 -0.265792)
      (xy -1.375558 -0.193644)
      (xy -1.46985 -0.066362)
      (xy -1.530629 0.005428)
      (xy -1.789268 0.320174)
      (xy -1.974289 0.584167)
      (xy -2.090173 0.808163)
      (xy -2.141403 1.002919)
      (xy -2.132459 1.179192)
      (xy -2.080082 1.324157)
      (xy -1.967051 1.448346)
      (xy -1.795146 1.521352)
      (xy -1.594025 1.537214)
      (xy -1.393343 1.489976)
      (xy -1.352033 1.470437)
      (xy -1.178062 1.350394)
      (xy -1.006399 1.183817)
      (xy -0.85622 0.995302)
      (xy -0.746698 0.809441)
      (xy -0.697009 0.650828)
      (xy -0.695891 0.62885)
      (xy -0.681996 0.490789)
      (xy -0.647368 0.298239)
      (xy -0.493585 0.298239)
      (xy -0.47799 0.303584)
      (xy -0.434844 0.227851)
      (xy -0.369443 0.083793)
      (xy -0.287079 -0.115837)
      (xy -0.193046 -0.358286)
      (xy -0.092636 -0.630801)
      (xy -0.007422 -0.873078)
      (xy 0.094098 -1.17598)
      (xy 0.160305 -1.394028)
      (xy 0.192562 -1.534769)
      (xy 0.192231 -1.60575)
      (xy 0.160676 -1.614517)
      (xy 0.121805 -1.588565)
      (xy 0.034127 -1.475879)
      (xy -0.061777 -1.284654)
      (xy -0.157194 -1.034306)
      (xy -0.222992 -0.820157)
      (xy -0.301471 -0.531554)
      (xy -0.372128 -0.258682)
      (xy -0.430479 -0.02008)
      (xy -0.472038 0.165712)
      (xy -0.49232 0.280155)
      (xy -0.493585 0.298239)
      (xy -0.647368 0.298239)
      (xy -0.643937 0.27916)
      (xy -0.587157 0.015297)
      (xy -0.517095 -0.279467)
      (xy -0.439195 -0.583798)
      (xy -0.358895 -0.87636)
      (xy -0.281639 -1.13582)
      (xy -0.212866 -1.340844)
      (xy -0.162949 -1.460744)
      (xy -0.059604 -1.618783)
      (xy 0.0627 -1.741452)
      (xy 0.18537 -1.817576)
      (xy 0.289811 -1.835981)
      (xy 0.357429 -1.785494)
      (xy 0.36156 -1.775942)
      (xy 0.360763 -1.688459)
      (xy 0.328167 -1.524931)
      (xy 0.269212 -1.301489)
      (xy 0.189342 -1.034261)
      (xy 0.093998 -0.739378)
      (xy -0.011379 -0.432969)
      (xy -0.121346 -0.131164)
      (xy -0.230462 0.149908)
      (xy -0.333285 0.394118)
      (xy -0.424373 0.585335)
      (xy -0.452384 0.636598)
      (xy -0.532762 0.829078)
      (xy -0.528803 1.003018)
      (xy -0.447903 1.180528)
      (xy -0.33321 1.306585)
      (xy -0.19817 1.337739)
      (xy -0.038922 1.27408)
      (xy 0.067417 1.192558)
      (xy 0.1568 1.107095)
      (xy 0.209724 1.025583)
      (xy 0.237799 0.91669)
      (xy 0.252637 0.749081)
      (xy 0.256222 0.683067)
      (xy 0.261383 0.642994)
      (xy 0.403175 0.642994)
      (xy 0.411244 0.68247)
      (xy 0.450319 0.655845)
      (xy 0.460072 0.646184)
      (xy 0.518287 0.556793)
      (xy 0.583718 0.412622)
      (xy 0.615254 0.325853)
      (xy 0.66139 0.14566)
      (xy 0.65596 0.04303)
      (xy 0.6476 0.031241)
      (xy 0.599994 0.036995)
      (xy 0.542893 0.121459)
      (xy 0.485069 0.265619)
      (xy 0.435291 0.450462)
      (xy 0.421274 0.521918)
      (xy 0.403175 0.642994)
      (xy 0.261383 0.642994)
      (xy 0.293444 0.394075)
      (xy 0.368659 0.146571)
      (xy 0.473914 -0.038561)
      (xy 0.562262 -0.120528)
      (xy 0.67376 -0.142326)
      (xy 0.774273 -0.084837)
      (xy 0.834149 0.03358)
      (xy 0.836983 0.049549)
      (xy 0.825478 0.149747)
      (xy 0.780326 0.309559)
      (xy 0.712429 0.499729)
      (xy 0.632693 0.691)
      (xy 0.55202 0.854116)
      (xy 0.513248 0.918203)
      (xy 0.46522 1.044173)
      (xy 0.449369 1.202425)
      (xy 0.466231 1.348897)
      (xy 0.507005 1.431546)
      (xy 0.591317 1.491772)
      (xy 0.671247 1.48838)
      (xy 0.75563 1.413609)
      (xy 0.853301 1.259694)
      (xy 0.970603 1.024215)
      (xy 1.105291 0.764007)
      (xy 1.238998 0.556588)
      (xy 1.362038 0.414666)
      (xy 1.464726 0.350946)
      (xy 1.48547 0.348706)
      (xy 1.587001 0.39919)
      (xy 1.681331 0.546418)
      (xy 1.737718 0.689959)
      (xy 1.823932 0.94463)
      (xy 1.973194 0.658714)
      (xy 2.073595 0.494624)
      (xy 2.181583 0.361195)
      (xy 2.256989 0.298239)
      (xy 2.356112 0.252286)
      (xy 2.415734 0.265424)
      (xy 2.463275 0.320166)
      (xy 2.510072 0.446741)
      (xy 2.533163 0.667362)
      (xy 2.535708 0.792377)
      (xy 2.541356 1.054188)
      (xy 2.559634 1.230892)
      (xy 2.594214 1.33639)
      (xy 2.64877 1.384582)
      (xy 2.694088 1.391781)
      (xy 2.764143 1.417519)
      (xy 2.757331 1.479912)
      (xy 2.676879 1.556724)
      (xy 2.669454 1.561512)
      (xy 2.589491 1.582733)
      (xy 2.502127 1.529229)
      (xy 2.479695 1.507657)
      (xy 2.428408 1.444161)
      (xy 2.395979 1.362524)
      (xy 2.377776 1.239247)
      (xy 2.369166 1.050829)
      (xy 2.367164 0.936723)
      (xy 2.357733 0.68898)
      (xy 2.334957 0.535296)
      (xy 2.295488 0.475743)
      (xy 2.235976 0.510392)
      (xy 2.153071 0.639315)
      (xy 2.043424 0.862583)
      (xy 2.006399 0.944423)
      (xy 1.890614 1.200839)
      (xy 1.805664 1.379498)
      (xy 1.74339 1.494087)
      (xy 1.695633 1.558295)
      (xy 1.654235 1.58581)
      (xy 1.621279 1.590606)
      (xy 1.588601 1.570728)
      (xy 1.571503 1.500192)
      (xy 1.568306 1.362653)
      (xy 1.57658 1.155675)
      (xy 1.584663 0.92895)
      (xy 1.578262 0.777988)
      (xy 1.554969 0.679876)
      (xy 1.52042 0.621331)
      (xy 1.465673 0.561431)
      (xy 1.420284 0.560937)
      (xy 1.353882 0.627278)
      (xy 1.317254 0.671037)
      (xy 1.236859 0.784031)
      (xy 1.194924 0.874504)
      (xy 1.193201 0.88761)
      (xy 1.168498 0.990085)
      (xy 1.10533 1.141331)
      (xy 1.019363 1.311965)
      (xy 0.926263 1.472603)
      (xy 0.841695 1.593862)
      (xy 0.790556 1.642854)
      (xy 0.620282 1.68696)
      (xy 0.465117 1.643267)
      (xy 0.351189 1.519289)
      (xy 0.349513 1.516047)
      (xy 0.294656 1.409336)
      (xy 0.262983 1.349105)
      (xy 0.261858 1.347116)
      (xy 0.215724 1.356754)
      (xy 0.110533 1.403176)
      (xy 0.032055 1.4431)
      (xy -0.190629 1.5228)
      (xy -0.380909 1.508601)
      (xy -0.538482 1.400576)
      (xy -0.621163 1.283775)
      (xy -0.721689 1.104562)
      (xy -0.944896 1.345547)
      (xy -1.202444 1.573219)
      (xy -1.461571 1.701608)
      (xy -1.722673 1.730838)
      (xy -1.974853 1.666032)
      (xy -2.141661 1.545825)
      (xy -2.269409 1.365479)
      (xy -2.333057 1.163276)
      (xy -2.336018 1.113908)
      (xy -2.306878 0.958742)
      (xy -2.228421 0.754854)
      (xy -2.114529 0.53026)
      (xy -1.979085 0.312974)
      (xy -1.865413 0.164251)
      (xy -1.752213 0.027336)
      (xy -1.702342 -0.051959)
      (xy -1.711656 -0.08902)
      (xy -1.776009 -0.099237)
      (xy -1.794404 -0.099413)
      (xy -1.889416 -0.13308)
      (xy -2.012436 -0.218567)
      (xy -2.073951 -0.274577)
      (xy -2.178744 -0.38861)
      (xy -2.224328 -0.479662)
      (xy -2.22643 -0.59008)
      (xy -2.217009 -0.659802)
      (xy -2.158968 -0.886024)
      (xy -2.058063 -1.127795)
      (xy -1.926715 -1.367051)
      (xy -1.777347 -1.585728)
      (xy -1.62238 -1.765763)
      (xy -1.474237 -1.889092)
      (xy -1.34534 -1.937651)
      (xy -1.338169 -1.937791)
    )

    (stroke (width 0) (type solid)) (fill solid) (layer "F.Mask") (tstamp b1523b28-ac87-44fb-96cb-bb18c63edde5))
)
