(footprint "temt6000" (version 20221018) (generator pcbnew)
  (layer "F.Cu")
  (descr "Through hole straight socket strip, 1x04, 2.54mm pitch, single row (from Kicad 4.0.7), script generated")
  (tags "Through hole socket strip THT 1x04 2.54mm single row")
  (property "Sheetfile" "multi_sensor.kicad_sch")
  (property "Sheetname" "")
  (attr through_hole)
  (fp_text reference "U5" (at 5.24 -0.38 90) (layer "F.SilkS")
      (effects (font (size 1 1) (thickness 0.15)))
    (tstamp 153c16e5-738a-4a65-ae4c-7eff54472e7b)
  )
  (fp_text value "temt6000" (at -3.4 -2.41 180) (layer "F.Fab")
      (effects (font (size 1 1) (thickness 0.15)))
    (tstamp ff18d6a2-b39a-44c3-960d-d7ab208187df)
  )
  (fp_text user "${VALUE}" (at -5.5 -4.9) (layer "B.SilkS")
      (effects (font (size 0.7 0.7) (thickness 0.15)) (justify mirror))
    (tstamp 0c546dbb-21e7-4d77-929e-ec5e5b6138fd)
  )
  (fp_text user "gnd" (at -0.4 -0.41 unlocked) (layer "B.SilkS")
      (effects (font (size 1 1) (thickness 0.15)) (justify mirror))
    (tstamp 3255ef1b-2ca1-4100-bb84-af45e51ad1d6)
  )
  (fp_text user "vcc" (at 0 -2.95 unlocked) (layer "B.SilkS")
      (effects (font (size 1 1) (thickness 0.15)) (justify mirror))
    (tstamp 54a974da-3575-4b73-82a8-d4e766f708f3)
  )
  (fp_text user "sig" (at 0 2.13 unlocked) (layer "B.SilkS")
      (effects (font (size 1 1) (thickness 0.15)) (justify mirror))
    (tstamp 605346ce-bbec-4353-9998-8af40a808d8b)
  )
  (fp_text user "vcc" (at -0.24 -3.01 unlocked) (layer "F.SilkS")
      (effects (font (size 1 1) (thickness 0.15)))
    (tstamp 0f0f4b2c-04a5-4b11-99ba-1a219eaf581b)
  )
  (fp_text user "${VALUE}" (at -5.65 -4.9) (layer "F.SilkS")
      (effects (font (size 0.7 0.7) (thickness 0.15)))
    (tstamp 19b59257-3887-4e4b-a0e0-5fd08ae32d80)
  )
  (fp_text user "sig" (at -0.02 2.16 unlocked) (layer "F.SilkS")
      (effects (font (size 1 1) (thickness 0.15)))
    (tstamp ddb45e7d-c926-4de4-afb5-d065b3cfee29)
  )
  (fp_text user "gnd" (at -0.31 -0.41 unlocked) (layer "F.SilkS")
      (effects (font (size 1 1) (thickness 0.15)))
    (tstamp eee5c2c7-fedc-4c9e-8062-f7ff11458436)
  )
  (fp_rect (start 4.2 -3.92) (end -9.84 4.22)
    (stroke (width 0.12) (type solid)) (fill none) (layer "B.SilkS") (tstamp fe220768-a7ad-4e89-a20e-59b382f2e8b6))
  (fp_poly
    (pts
      (xy -8.551585 -0.063091)
      (xy -8.610147 -0.058842)
      (xy -8.933495 -0.032058)
      (xy -8.674189 0.257258)
      (xy -8.414883 0.546574)
      (xy -8.316619 0.264696)
      (xy -8.260087 0.068965)
      (xy -8.249092 -0.044994)
      (xy -8.252577 -0.051404)
      (xy -8.350856 -0.0671)
    )

    (stroke (width 0) (type solid)) (fill solid) (layer "B.SilkS") (tstamp c114c712-531b-4655-8932-e22a3f275d72))
  (fp_poly
    (pts
      (xy -7.771882 2.074815)
      (xy -7.788375 2.174065)
      (xy -7.783475 2.372697)
      (xy -7.780237 2.413163)
      (xy -7.753453 2.716371)
      (xy -7.469993 2.493697)
      (xy -7.186533 2.271022)
      (xy -7.461638 2.155349)
      (xy -7.652983 2.08753)
      (xy -7.765332 2.071328)
    )

    (stroke (width 0) (type solid)) (fill solid) (layer "B.SilkS") (tstamp 12e6490a-11f5-4087-b193-77067ba3b728))
  (fp_poly
    (pts
      (xy -5.915496 -0.688224)
      (xy -6.031396 -0.49983)
      (xy -6.02102 -0.325699)
      (xy -5.896289 -0.216203)
      (xy -5.800296 -0.201391)
      (xy -5.632121 -0.248475)
      (xy -5.594453 -0.349558)
      (xy -5.544383 -0.477877)
      (xy -5.48862 -0.503091)
      (xy -5.472365 -0.531706)
      (xy -5.573286 -0.58503)
      (xy -5.719966 -0.675775)
      (xy -5.763786 -0.748996)
      (xy -5.812848 -0.765291)
    )

    (stroke (width 0) (type solid)) (fill solid) (layer "B.SilkS") (tstamp 5e0603e9-5471-4bb8-af0d-07fd2bcf6fea))
  (fp_poly
    (pts
      (xy -8.565156 1.169285)
      (xy -8.567565 1.172185)
      (xy -8.760037 1.407979)
      (xy -8.845497 1.541586)
      (xy -8.823981 1.602022)
      (xy -8.695529 1.6183)
      (xy -8.568153 1.618942)
      (xy -8.35217 1.611902)
      (xy -8.229618 1.594258)
      (xy -8.21912 1.586329)
      (xy -8.248604 1.494198)
      (xy -8.320626 1.312443)
      (xy -8.330955 1.287739)
      (xy -8.412407 1.116551)
      (xy -8.476611 1.083836)
    )

    (stroke (width 0) (type solid)) (fill solid) (layer "B.SilkS") (tstamp df4946df-17ab-4d50-9386-9ca190c2fdfd))
  (fp_poly
    (pts
      (xy -6.227197 2.07176)
      (xy -6.408952 2.143782)
      (xy -6.433656 2.154111)
      (xy -6.604844 2.235563)
      (xy -6.637559 2.299767)
      (xy -6.55211 2.388312)
      (xy -6.54921 2.390721)
      (xy -6.313416 2.583193)
      (xy -6.179809 2.668653)
      (xy -6.119373 2.647137)
      (xy -6.103095 2.518685)
      (xy -6.102453 2.391309)
      (xy -6.109493 2.175326)
      (xy -6.127137 2.052774)
      (xy -6.135066 2.042276)
    )

    (stroke (width 0) (type solid)) (fill solid) (layer "B.SilkS") (tstamp 70807eee-b1d7-46e7-ba66-06ce9f3aa6f7))
  (fp_poly
    (pts
      (xy -5.350387 -1.757665)
      (xy -5.365619 -1.703805)
      (xy -5.295188 -1.570622)
      (xy -5.193487 -1.414074)
      (xy -4.99532 -0.969293)
      (xy -4.948482 -0.490521)
      (xy -5.052974 -0.019748)
      (xy -5.193487 0.249292)
      (xy -5.326482 0.457832)
      (xy -5.369403 0.562617)
      (xy -5.328612 0.599085)
      (xy -5.256987 0.602942)
      (xy -5.103785 0.545745)
      (xy -4.895255 0.39907)
      (xy -4.759049 0.275538)
      (xy -4.490402 -0.074143)
      (xy -4.377964 -0.44818)
      (xy -4.410556 -0.885499)
      (xy -4.417042 -0.915328)
      (xy -4.525649 -1.165156)
      (xy -4.717065 -1.418318)
      (xy -4.946568 -1.629363)
      (xy -5.169439 -1.752839)
      (xy -5.255744 -1.767724)
    )

    (stroke (width 0) (type solid)) (fill solid) (layer "B.SilkS") (tstamp 56b8bb9d-ffcc-49f9-84bb-b829a4e657d4))
  (fp_poly
    (pts
      (xy -6.545185 -1.754245)
      (xy -6.551846 -1.73727)
      (xy -6.669942 -1.625666)
      (xy -6.790251 -1.598391)
      (xy -6.916874 -1.587461)
      (xy -6.905856 -1.525899)
      (xy -6.8332 -1.441302)
      (xy -6.741495 -1.266156)
      (xy -6.74447 -1.144969)
      (xy -6.748921 -1.026725)
      (xy -6.659536 -1.01978)
      (xy -6.552276 -1.097768)
      (xy -6.450076 -1.144024)
      (xy -6.403346 -1.097768)
      (xy -6.293961 -1.007326)
      (xy -6.212341 -1.051043)
      (xy -6.210222 -1.16959)
      (xy -6.188468 -1.332568)
      (xy -6.114263 -1.38695)
      (xy -6.028456 -1.43789)
      (xy -6.08532 -1.499937)
      (xy -6.144786 -1.534439)
      (xy -6.324597 -1.665924)
      (xy -6.406336 -1.75229)
      (xy -6.488649 -1.830256)
    )

    (stroke (width 0) (type solid)) (fill solid) (layer "B.SilkS") (tstamp 174a7e4c-47b7-4217-b45e-7f13618a9bbe))
  (fp_poly
    (pts
      (xy -8.08948 0.274751)
      (xy -8.140415 0.537226)
      (xy -8.15622 0.833235)
      (xy -8.130012 1.089776)
      (xy -8.021272 1.345398)
      (xy -7.831617 1.6028)
      (xy -7.604487 1.816783)
      (xy -7.383323 1.942146)
      (xy -7.295954 1.957609)
      (xy -7.097227 1.974485)
      (xy -7.019544 1.991114)
      (xy -6.86348 1.995839)
      (xy -6.639668 1.961454)
      (xy -6.627323 1.958595)
      (xy -6.421124 1.898365)
      (xy -6.29673 1.840974)
      (xy -6.292442 1.837154)
      (xy -6.329112 1.761144)
      (xy -6.467444 1.589617)
      (xy -6.687665 1.345071)
      (xy -6.97 1.05)
      (xy -7.097802 0.920958)
      (xy -7.406806 0.618893)
      (xy -7.67414 0.37064)
      (xy -7.877368 0.196033)
      (xy -7.994052 0.114906)
      (xy -8.011587 0.113187)
    )

    (stroke (width 0) (type solid)) (fill solid) (layer "B.SilkS") (tstamp 5f169842-4e4b-4ec5-b2e3-92c681b0affb))
  (fp_poly
    (pts
      (xy -8.321506 -1.354756)
      (xy -8.364003 -1.32046)
      (xy -8.401294 -1.272408)
      (xy -8.410199 -1.214168)
      (xy -8.379021 -1.131854)
      (xy -8.296064 -1.011578)
      (xy -8.149631 -0.839456)
      (xy -7.928028 -0.6016)
      (xy -7.619558 -0.284125)
      (xy -7.212525 0.126855)
      (xy -6.778662 0.561734)
      (xy -6.334603 1.004398)
      (xy -5.928926 1.405371)
      (xy -5.577064 1.749676)
      (xy -5.294444 2.022334)
      (xy -5.0965 2.208366)
      (xy -4.998659 2.292795)
      (xy -4.991761 2.296276)
      (xy -4.900038 2.239082)
      (xy -4.827671 2.163513)
      (xy -4.808607 2.111776)
      (xy -4.830568 2.033962)
      (xy -4.905012 1.916916)
      (xy -5.043396 1.747482)
      (xy -5.257176 1.512506)
      (xy -5.557811 1.198831)
      (xy -5.956757 0.793303)
      (xy -6.465473 0.282765)
      (xy -6.466919 0.281319)
      (xy -6.970909 -0.221764)
      (xy -7.369521 -0.616223)
      (xy -7.676562 -0.913716)
      (xy -7.905841 -1.125902)
      (xy -8.071167 -1.26444)
      (xy -8.186347 -1.34099)
      (xy -8.265191 -1.367208)
    )

    (stroke (width 0) (type solid)) (fill solid) (layer "B.SilkS") (tstamp b1a117e9-b51c-4b79-8a07-d696db303edf))
  (fp_rect (start -9.83 -3.91) (end 4.21 4.23)
    (stroke (width 0.12) (type solid)) (fill none) (layer "F.SilkS") (tstamp ab41bccf-5717-441b-ac6c-3f875dc27cd7))
  (fp_rect (start 1.23 4.08) (end 3.86 -3.72)
    (stroke (width 0.12) (type default)) (fill none) (layer "F.SilkS") (tstamp c3d9cdf7-cfc0-48cf-802f-5ae58d97b90a))
  (fp_poly
    (pts
      (xy -5.438571 1.841206)
      (xy -5.422078 1.940456)
      (xy -5.426978 2.139088)
      (xy -5.430216 2.179554)
      (xy -5.457 2.482762)
      (xy -5.74046 2.260088)
      (xy -6.02392 2.037413)
      (xy -5.748815 1.92174)
      (xy -5.55747 1.853921)
      (xy -5.445121 1.837719)
    )

    (stroke (width 0) (type solid)) (fill solid) (layer "F.SilkS") (tstamp 8345f8b4-ff6c-46a5-b298-ad8b5e0e23b9))
  (fp_poly
    (pts
      (xy -4.658868 -0.2967)
      (xy -4.600306 -0.292451)
      (xy -4.276958 -0.265667)
      (xy -4.536264 0.023649)
      (xy -4.79557 0.312965)
      (xy -4.893834 0.031087)
      (xy -4.950366 -0.164644)
      (xy -4.961361 -0.278603)
      (xy -4.957876 -0.285013)
      (xy -4.859597 -0.300709)
    )

    (stroke (width 0) (type solid)) (fill solid) (layer "F.SilkS") (tstamp cd648746-6b3c-4e0b-9a58-d34b020b5bb8))
  (fp_poly
    (pts
      (xy -7.294957 -0.921833)
      (xy -7.179057 -0.733439)
      (xy -7.189433 -0.559308)
      (xy -7.314164 -0.449812)
      (xy -7.410157 -0.435)
      (xy -7.578332 -0.482084)
      (xy -7.616 -0.583167)
      (xy -7.66607 -0.711486)
      (xy -7.721833 -0.7367)
      (xy -7.738088 -0.765315)
      (xy -7.637167 -0.818639)
      (xy -7.490487 -0.909384)
      (xy -7.446667 -0.982605)
      (xy -7.397605 -0.9989)
    )

    (stroke (width 0) (type solid)) (fill solid) (layer "F.SilkS") (tstamp 864551b9-1561-4002-a7be-0e85502ba769))
  (fp_poly
    (pts
      (xy -6.983256 1.838151)
      (xy -6.801501 1.910173)
      (xy -6.776797 1.920502)
      (xy -6.605609 2.001954)
      (xy -6.572894 2.066158)
      (xy -6.658343 2.154703)
      (xy -6.661243 2.157112)
      (xy -6.897037 2.349584)
      (xy -7.030644 2.435044)
      (xy -7.09108 2.413528)
      (xy -7.107358 2.285076)
      (xy -7.108 2.1577)
      (xy -7.10096 1.941717)
      (xy -7.083316 1.819165)
      (xy -7.075387 1.808667)
    )

    (stroke (width 0) (type solid)) (fill solid) (layer "F.SilkS") (tstamp 0ce547d0-baa4-42ff-84d2-83f55cc50043))
  (fp_poly
    (pts
      (xy -4.645297 0.935676)
      (xy -4.642888 0.938576)
      (xy -4.450416 1.17437)
      (xy -4.364956 1.307977)
      (xy -4.386472 1.368413)
      (xy -4.514924 1.384691)
      (xy -4.6423 1.385333)
      (xy -4.858283 1.378293)
      (xy -4.980835 1.360649)
      (xy -4.991333 1.35272)
      (xy -4.961849 1.260589)
      (xy -4.889827 1.078834)
      (xy -4.879498 1.05413)
      (xy -4.798046 0.882942)
      (xy -4.733842 0.850227)
    )

    (stroke (width 0) (type solid)) (fill solid) (layer "F.SilkS") (tstamp be18a7a5-7d78-4885-8dd6-4c2a1a8df27a))
  (fp_poly
    (pts
      (xy -7.860066 -1.991274)
      (xy -7.844834 -1.937414)
      (xy -7.915265 -1.804231)
      (xy -8.016966 -1.647683)
      (xy -8.215133 -1.202902)
      (xy -8.261971 -0.72413)
      (xy -8.157479 -0.253357)
      (xy -8.016966 0.015683)
      (xy -7.883971 0.224223)
      (xy -7.84105 0.329008)
      (xy -7.881841 0.365476)
      (xy -7.953466 0.369333)
      (xy -8.106668 0.312136)
      (xy -8.315198 0.165461)
      (xy -8.451404 0.041929)
      (xy -8.720051 -0.307752)
      (xy -8.832489 -0.681789)
      (xy -8.799897 -1.119108)
      (xy -8.793411 -1.148937)
      (xy -8.684804 -1.398765)
      (xy -8.493388 -1.651927)
      (xy -8.263885 -1.862972)
      (xy -8.041014 -1.986448)
      (xy -7.954709 -2.001333)
    )

    (stroke (width 0) (type solid)) (fill solid) (layer "F.SilkS") (tstamp 001ab68f-7d77-43c1-84f6-6cca2f6efd30))
  (fp_poly
    (pts
      (xy -6.665268 -1.987854)
      (xy -6.658607 -1.970879)
      (xy -6.540511 -1.859275)
      (xy -6.420202 -1.832)
      (xy -6.293579 -1.82107)
      (xy -6.304597 -1.759508)
      (xy -6.377253 -1.674911)
      (xy -6.468958 -1.499765)
      (xy -6.465983 -1.378578)
      (xy -6.461532 -1.260334)
      (xy -6.550917 -1.253389)
      (xy -6.658177 -1.331377)
      (xy -6.760377 -1.377633)
      (xy -6.807107 -1.331377)
      (xy -6.916492 -1.240935)
      (xy -6.998112 -1.284652)
      (xy -7.000231 -1.403199)
      (xy -7.021985 -1.566177)
      (xy -7.09619 -1.620559)
      (xy -7.181997 -1.671499)
      (xy -7.125133 -1.733546)
      (xy -7.065667 -1.768048)
      (xy -6.885856 -1.899533)
      (xy -6.804117 -1.985899)
      (xy -6.721804 -2.063865)
    )

    (stroke (width 0) (type solid)) (fill solid) (layer "F.SilkS") (tstamp 4879b07c-1665-4c66-9d1c-ad3f34a582c0))
  (fp_poly
    (pts
      (xy -5.120973 0.041142)
      (xy -5.070038 0.303617)
      (xy -5.054233 0.599626)
      (xy -5.080441 0.856167)
      (xy -5.189181 1.111789)
      (xy -5.378836 1.369191)
      (xy -5.605966 1.583174)
      (xy -5.82713 1.708537)
      (xy -5.914499 1.724)
      (xy -6.113226 1.740876)
      (xy -6.190909 1.757505)
      (xy -6.346973 1.76223)
      (xy -6.570785 1.727845)
      (xy -6.58313 1.724986)
      (xy -6.789329 1.664756)
      (xy -6.913723 1.607365)
      (xy -6.918011 1.603545)
      (xy -6.881341 1.527535)
      (xy -6.743009 1.356008)
      (xy -6.522788 1.111462)
      (xy -6.240453 0.816391)
      (xy -6.112651 0.687349)
      (xy -5.803647 0.385284)
      (xy -5.536313 0.137031)
      (xy -5.333085 -0.037576)
      (xy -5.216401 -0.118703)
      (xy -5.198866 -0.120422)
    )

    (stroke (width 0) (type solid)) (fill solid) (layer "F.SilkS") (tstamp 915ed0c6-0421-443f-a1d9-99b91487b731))
  (fp_poly
    (pts
      (xy -4.888947 -1.588365)
      (xy -4.84645 -1.554069)
      (xy -4.809159 -1.506017)
      (xy -4.800254 -1.447777)
      (xy -4.831432 -1.365463)
      (xy -4.914389 -1.245187)
      (xy -5.060822 -1.073065)
      (xy -5.282425 -0.835209)
      (xy -5.590895 -0.517734)
      (xy -5.997928 -0.106754)
      (xy -6.431791 0.328125)
      (xy -6.87585 0.770789)
      (xy -7.281527 1.171762)
      (xy -7.633389 1.516067)
      (xy -7.916009 1.788725)
      (xy -8.113953 1.974757)
      (xy -8.211794 2.059186)
      (xy -8.218692 2.062667)
      (xy -8.310415 2.005473)
      (xy -8.382782 1.929904)
      (xy -8.401846 1.878167)
      (xy -8.379885 1.800353)
      (xy -8.305441 1.683307)
      (xy -8.167057 1.513873)
      (xy -7.953277 1.278897)
      (xy -7.652642 0.965222)
      (xy -7.253696 0.559694)
      (xy -6.74498 0.049156)
      (xy -6.743534 0.04771)
      (xy -6.239544 -0.455373)
      (xy -5.840932 -0.849832)
      (xy -5.533891 -1.147325)
      (xy -5.304612 -1.359511)
      (xy -5.139286 -1.498049)
      (xy -5.024106 -1.574599)
      (xy -4.945262 -1.600817)
    )

    (stroke (width 0) (type solid)) (fill solid) (layer "F.SilkS") (tstamp f6b5d210-b30a-4bba-a75e-8e09ae9f9a9f))
  (fp_line (start -9.91 -3.99) (end 4.29 -3.99)
    (stroke (width 0.05) (type solid)) (layer "F.CrtYd") (tstamp 72b42616-69e6-4cc8-85c6-07bc500cb727))
  (fp_line (start -9.91 4.31) (end -9.91 -3.99)
    (stroke (width 0.05) (type solid)) (layer "F.CrtYd") (tstamp 38663717-d9e5-460a-9226-627799f97545))
  (fp_line (start 4.29 -3.99) (end 4.29 4.31)
    (stroke (width 0.05) (type solid)) (layer "F.CrtYd") (tstamp 701490c2-84a0-4ee6-9f32-a95976b89342))
  (fp_line (start 4.29 4.31) (end -9.91 4.31)
    (stroke (width 0.05) (type solid)) (layer "F.CrtYd") (tstamp bc064ef2-7d48-4f56-9957-85cb0b4a204c))
  (pad "1" thru_hole oval (at 2.54 2.54) (size 1.7 1.7) (drill 1) (layers "*.Cu" "*.Mask") (tstamp e4079c53-667b-4991-9733-4097bf5b486b))
  (pad "2" thru_hole roundrect (at 2.54 0) (size 1.7 1.7) (drill 1) (layers "*.Cu" "*.Mask") (roundrect_rratio 0.25) (tstamp dc8e37ba-fab8-4943-8514-5e792da45ebc))
  (pad "3" thru_hole oval (at 2.54 -2.54) (size 1.7 1.7) (drill 1) (layers "*.Cu" "*.Mask") (tstamp a3d252a4-80a9-44f1-8bcc-4a8020743141))
  (model "${KICAD7_3DMODEL_DIR}/Connector_PinSocket_2.54mm.3dshapes/PinSocket_1x03_P2.54mm_Vertical.wrl"
    (offset (xyz 2.5 2.5 0))
    (scale (xyz 1 1 1))
    (rotate (xyz 0 0 0))
  )
  (model "${KIPRJMOD}/3d/TEMT6000 v2.step"
    (offset (xyz -3.25 0 10))
    (scale (xyz 1 1 1))
    (rotate (xyz 0 0 -90))
  )
  (model "${KICAD7_3DMODEL_DIR}/Connector_PinHeader_2.54mm.3dshapes/PinHeader_1x03_P2.54mm_Vertical.wrl"
    (offset (xyz 2.5 2.5 9.5))
    (scale (xyz 1 1 1))
    (rotate (xyz 0 -180 0))
  )
)
