(kicad_symbol_lib (version 20220914) (generator kicad_symbol_editor)
  (symbol "ESP32-C3Fx4" (in_bom yes) (on_board yes)
    (property "Reference" "U" (at -25.4 35.56 0)
      (effects (font (size 1.27 1.27)) (justify left))
    )
    (property "Value" "ESP32-C3Fx4" (at -25.4 33.02 0)
      (effects (font (size 1.27 1.27)) (justify left))
    )
    (property "Footprint" "footprints:esp32-c3-fx4" (at 0 -33.02 0)
      (effects (font (size 1.27 1.27)) hide)
    )
    (property "Datasheet" "https://github.com/WeActStudio/WeActStudio.ESP32C3CoreBoard" (at 0 -35.56 0)
      (effects (font (size 1.27 1.27)) hide)
    )
    (property "ki_keywords" "esp32-c3" (at 0 0 0)
      (effects (font (size 1.27 1.27)) hide)
    )
    (property "ki_description" "ESP32-C3-MINI-1 is a general-purpose Wi-Fi and Bluetooth LE module. This module features a rich set of peripherals and a small size, which makes it an ideal choice for smart home, industrial automation, health care, consumer electronics, etc" (at 0 0 0)
      (effects (font (size 1.27 1.27)) hide)
    )
    (symbol "ESP32-C3Fx4_0_0"
      (text "ESP32-C3-Fx4" (at 0 -25.4 0)
        (effects (font (size 2 2)))
      )
    )
    (symbol "ESP32-C3Fx4_0_1"
      (rectangle (start -25.4 30.48) (end 25.4 -30.48)
        (stroke (width 0.254) (type default))
        (fill (type background))
      )
    )
    (symbol "ESP32-C3Fx4_1_1"
      (pin bidirectional line (at -27.94 25.4 0) (length 2.54)
        (name "GPIO0/ADC1_CH0/XTAL_32K_P" (effects (font (size 1.27 1.27))))
        (number "1" (effects (font (size 1.27 1.27))))
      )
      (pin power_in line (at 6.35 33.02 270) (length 2.54)
        (name "VB" (effects (font (size 1.27 1.27))))
        (number "10" (effects (font (size 1.27 1.27))))
      )
      (pin power_in line (at 7.62 -33.02 90) (length 2.54)
        (name "GND" (effects (font (size 1.27 1.27))))
        (number "11" (effects (font (size 1.27 1.27))))
      )
      (pin power_in line (at 5.08 -33.02 90) (length 2.54)
        (name "GND" (effects (font (size 1.27 1.27))))
        (number "12" (effects (font (size 1.27 1.27))))
      )
      (pin power_in line (at 2.54 -33.02 90) (length 2.54)
        (name "GND" (effects (font (size 1.27 1.27))))
        (number "13" (effects (font (size 1.27 1.27))))
      )
      (pin power_in line (at -6.35 -33.02 90) (length 2.54)
        (name "GND" (effects (font (size 1.27 1.27))))
        (number "14" (effects (font (size 1.27 1.27))))
      )
      (pin power_in line (at -3.81 33.02 270) (length 2.54)
        (name "3V3" (effects (font (size 1.27 1.27))))
        (number "15" (effects (font (size 1.27 1.27))))
      )
      (pin power_in line (at 0 33.02 270) (length 2.54)
        (name "3V3" (effects (font (size 1.27 1.27))))
        (number "16" (effects (font (size 1.27 1.27))))
      )
      (pin input line (at -27.94 27.94 0) (length 2.54)
        (name "EN/CHIP_PU" (effects (font (size 1.27 1.27))))
        (number "17" (effects (font (size 1.27 1.27))))
      )
      (pin bidirectional line (at -27.94 -2.54 0) (length 2.54)
        (name "GPIO8" (effects (font (size 1.27 1.27))))
        (number "18" (effects (font (size 1.27 1.27))))
      )
      (pin bidirectional line (at -27.94 -5.08 0) (length 2.54)
        (name "GPIO9" (effects (font (size 1.27 1.27))))
        (number "19" (effects (font (size 1.27 1.27))))
      )
      (pin bidirectional line (at -27.94 22.86 0) (length 2.54)
        (name "GPIO1/ADC1_CH1/XTAL_32K_N" (effects (font (size 1.27 1.27))))
        (number "2" (effects (font (size 1.27 1.27))))
      )
      (pin bidirectional line (at -27.94 -8.89 0) (length 2.54)
        (name "GPIO10" (effects (font (size 1.27 1.27))))
        (number "20" (effects (font (size 1.27 1.27))))
      )
      (pin bidirectional line (at -27.94 -11.43 0) (length 2.54)
        (name "GPIO18/USB_D-" (effects (font (size 1.27 1.27))))
        (number "21" (effects (font (size 1.27 1.27))))
      )
      (pin bidirectional line (at -27.94 -13.97 0) (length 2.54)
        (name "GPIO19/USB_D+" (effects (font (size 1.27 1.27))))
        (number "22" (effects (font (size 1.27 1.27))))
      )
      (pin bidirectional line (at -27.94 -17.78 0) (length 2.54)
        (name "GPIO20/U0RXD" (effects (font (size 1.27 1.27))))
        (number "23" (effects (font (size 1.27 1.27))))
      )
      (pin bidirectional line (at -27.94 -20.32 0) (length 2.54)
        (name "GPIO21/U0TXD" (effects (font (size 1.27 1.27))))
        (number "24" (effects (font (size 1.27 1.27))))
      )
      (pin bidirectional line (at -27.94 20.32 0) (length 2.54)
        (name "GPIO2/ADC1_CH2" (effects (font (size 1.27 1.27))))
        (number "3" (effects (font (size 1.27 1.27))))
      )
      (pin bidirectional line (at -27.94 17.78 0) (length 2.54)
        (name "GPIO3/ADC1_CH3" (effects (font (size 1.27 1.27))))
        (number "4" (effects (font (size 1.27 1.27))))
      )
      (pin bidirectional line (at -27.94 15.24 0) (length 2.54)
        (name "GPIO4/ADC1_CH4" (effects (font (size 1.27 1.27))))
        (number "5" (effects (font (size 1.27 1.27))))
      )
      (pin bidirectional line (at -27.94 12.7 0) (length 2.54)
        (name "GPIO5/ADC2_CH0" (effects (font (size 1.27 1.27))))
        (number "6" (effects (font (size 1.27 1.27))))
      )
      (pin bidirectional line (at -27.94 10.16 0) (length 2.54)
        (name "GPIO6" (effects (font (size 1.27 1.27))))
        (number "7" (effects (font (size 1.27 1.27))))
      )
      (pin bidirectional line (at -27.94 7.62 0) (length 2.54)
        (name "GPIO7" (effects (font (size 1.27 1.27))))
        (number "8" (effects (font (size 1.27 1.27))))
      )
      (pin power_in line (at 3.81 33.02 270) (length 2.54)
        (name "5V" (effects (font (size 1.27 1.27))))
        (number "9" (effects (font (size 1.27 1.27))))
      )
    )
  )
  (symbol "ESP32-C3_SUPERMINI" (pin_names (offset 1.016)) (in_bom yes) (on_board yes)
    (property "Reference" "U" (at -12.7 16.002 0)
      (effects (font (size 1.27 1.27)) (justify left bottom))
    )
    (property "Value" "ESP32-C3_SUPERMINI" (at -12.7 -20.32 0)
      (effects (font (size 1.27 1.27)) (justify left bottom))
    )
    (property "Footprint" "ESP32-C3_SUPERMINI:MODULE_ESP32-C3_SUPERMINI" (at 0 0 0)
      (effects (font (size 1.27 1.27)) (justify bottom) hide)
    )
    (property "Datasheet" "" (at 0 0 0)
      (effects (font (size 1.27 1.27)) hide)
    )
    (property "MF" "Espressif Systems" (at 0 0 0)
      (effects (font (size 1.27 1.27)) (justify bottom) hide)
    )
    (property "MAXIMUM_PACKAGE_HEIGHT" "4.2mm" (at 0 0 0)
      (effects (font (size 1.27 1.27)) (justify bottom) hide)
    )
    (property "Package" "Package" (at 0 0 0)
      (effects (font (size 1.27 1.27)) (justify bottom) hide)
    )
    (property "Price" "None" (at 0 0 0)
      (effects (font (size 1.27 1.27)) (justify bottom) hide)
    )
    (property "Check_prices" "https://www.snapeda.com/parts/ESP32-C3%20SuperMini/Espressif+Systems/view-part/?ref=eda" (at 0 0 0)
      (effects (font (size 1.27 1.27)) (justify bottom) hide)
    )
    (property "STANDARD" "Manufacturer Recommendations" (at 0 0 0)
      (effects (font (size 1.27 1.27)) (justify bottom) hide)
    )
    (property "PARTREV" "" (at 0 0 0)
      (effects (font (size 1.27 1.27)) (justify bottom) hide)
    )
    (property "SnapEDA_Link" "https://www.snapeda.com/parts/ESP32-C3%20SuperMini/Espressif+Systems/view-part/?ref=snap" (at 0 0 0)
      (effects (font (size 1.27 1.27)) (justify bottom) hide)
    )
    (property "MP" "ESP32-C3 SuperMini" (at 0 0 0)
      (effects (font (size 1.27 1.27)) (justify bottom) hide)
    )
    (property "Description" "\nSuper tiny ESP32-C3 board\n" (at 0 0 0)
      (effects (font (size 1.27 1.27)) (justify bottom) hide)
    )
    (property "Availability" "Not in stock" (at 0 0 0)
      (effects (font (size 1.27 1.27)) (justify bottom) hide)
    )
    (property "MANUFACTURER" "Espressif" (at 0 0 0)
      (effects (font (size 1.27 1.27)) (justify bottom) hide)
    )
    (symbol "ESP32-C3_SUPERMINI_0_0"
      (rectangle (start -15.24 -17.78) (end 10.16 15.24)
        (stroke (width 0.254) (type default))
        (fill (type background))
      )
      (pin bidirectional line (at -20.32 5.08 0) (length 5.08)
        (name "GPIO0" (effects (font (size 1.016 1.016))))
        (number "0" (effects (font (size 1.016 1.016))))
      )
      (pin bidirectional line (at -20.32 2.54 0) (length 5.08)
        (name "GPIO1" (effects (font (size 1.016 1.016))))
        (number "1" (effects (font (size 1.016 1.016))))
      )
      (pin bidirectional line (at 15.24 -2.54 180) (length 5.08)
        (name "GPIO10" (effects (font (size 1.016 1.016))))
        (number "10" (effects (font (size 1.016 1.016))))
      )
      (pin bidirectional line (at -20.32 0 0) (length 5.08)
        (name "GPIO2" (effects (font (size 1.016 1.016))))
        (number "2" (effects (font (size 1.016 1.016))))
      )
      (pin bidirectional line (at 15.24 -5.08 180) (length 5.08)
        (name "GPIO20" (effects (font (size 1.016 1.016))))
        (number "20" (effects (font (size 1.016 1.016))))
      )
      (pin bidirectional line (at 15.24 -7.62 180) (length 5.08)
        (name "GPIO21" (effects (font (size 1.016 1.016))))
        (number "21" (effects (font (size 1.016 1.016))))
      )
      (pin bidirectional line (at -20.32 -2.54 0) (length 5.08)
        (name "GPIO3" (effects (font (size 1.016 1.016))))
        (number "3" (effects (font (size 1.016 1.016))))
      )
      (pin power_in line (at 15.24 10.16 180) (length 5.08)
        (name "3V3" (effects (font (size 1.016 1.016))))
        (number "3.3" (effects (font (size 1.016 1.016))))
      )
      (pin bidirectional line (at -20.32 -5.08 0) (length 5.08)
        (name "GPIO4" (effects (font (size 1.016 1.016))))
        (number "4" (effects (font (size 1.016 1.016))))
      )
      (pin bidirectional line (at -20.32 -7.62 0) (length 5.08)
        (name "GPIO5" (effects (font (size 1.016 1.016))))
        (number "5" (effects (font (size 1.016 1.016))))
      )
      (pin power_in line (at 15.24 12.7 180) (length 5.08)
        (name "5V" (effects (font (size 1.016 1.016))))
        (number "5V" (effects (font (size 1.016 1.016))))
      )
      (pin bidirectional line (at -20.32 -10.16 0) (length 5.08)
        (name "GPIO6" (effects (font (size 1.016 1.016))))
        (number "6" (effects (font (size 1.016 1.016))))
      )
      (pin bidirectional line (at 15.24 5.08 180) (length 5.08)
        (name "GPIO7" (effects (font (size 1.016 1.016))))
        (number "7" (effects (font (size 1.016 1.016))))
      )
      (pin bidirectional line (at 15.24 2.54 180) (length 5.08)
        (name "GPIO8" (effects (font (size 1.016 1.016))))
        (number "8" (effects (font (size 1.016 1.016))))
      )
      (pin bidirectional line (at 15.24 0 180) (length 5.08)
        (name "GPIO9" (effects (font (size 1.016 1.016))))
        (number "9" (effects (font (size 1.016 1.016))))
      )
      (pin power_in line (at 15.24 -15.24 180) (length 5.08)
        (name "GND" (effects (font (size 1.016 1.016))))
        (number "G" (effects (font (size 1.016 1.016))))
      )
    )
  )
  (symbol "sensor_i2c" (in_bom yes) (on_board yes)
    (property "Reference" "U3" (at 3.81 7.62 0)
      (effects (font (size 1.27 1.27)))
    )
    (property "Value" "sensor_i2c" (at 3.81 5.08 0)
      (effects (font (size 1.27 1.27)))
    )
    (property "Footprint" "footprints:sgp30-40_i2c" (at 0 -5.08 0)
      (effects (font (size 1.27 1.27)) hide)
    )
    (property "Datasheet" "" (at 0 0 0)
      (effects (font (size 1.27 1.27)) hide)
    )
    (symbol "sensor_i2c_0_1"
      (rectangle (start -6.35 2.54) (end 13.97 -17.78)
        (stroke (width 0.254) (type default))
        (fill (type background))
      )
    )
    (symbol "sensor_i2c_1_1"
      (pin power_in line (at 19.05 -15.24 180) (length 5.08)
        (name "vin" (effects (font (size 1.27 1.27))))
        (number "1" (effects (font (size 1.27 1.27))))
      )
      (pin power_in line (at 19.05 -10.16 180) (length 5.08)
        (name "gnd" (effects (font (size 1.27 1.27))))
        (number "2" (effects (font (size 1.27 1.27))))
      )
      (pin bidirectional line (at 19.05 -5.08 180) (length 5.08)
        (name "scl" (effects (font (size 1.27 1.27))))
        (number "3" (effects (font (size 1.27 1.27))))
      )
      (pin bidirectional line (at 19.05 0 180) (length 5.08)
        (name "sda" (effects (font (size 1.27 1.27))))
        (number "4" (effects (font (size 1.27 1.27))))
      )
    )
  )
  (symbol "sensor_spi" (in_bom yes) (on_board yes)
    (property "Reference" "U2" (at 3.81 7.874 0)
      (effects (font (size 1.27 1.27)))
    )
    (property "Value" "T/hPa/%/voc bme680" (at 3.81 5.334 0)
      (effects (font (size 1.27 1.27)))
    )
    (property "Footprint" "footprints:bme280_i2c" (at 0 0 0)
      (effects (font (size 1.27 1.27)) hide)
    )
    (property "Datasheet" "" (at 0 0 0)
      (effects (font (size 1.27 1.27)) hide)
    )
    (symbol "sensor_spi_0_1"
      (rectangle (start -6.35 2.54) (end 13.97 -21.59)
        (stroke (width 0.254) (type default))
        (fill (type background))
      )
    )
    (symbol "sensor_spi_1_1"
      (pin power_in line (at 19.05 -19.05 180) (length 5.08)
        (name "vcc" (effects (font (size 1.27 1.27))))
        (number "1" (effects (font (size 1.27 1.27))))
      )
      (pin power_in line (at 19.05 -15.24 180) (length 5.08)
        (name "gnd" (effects (font (size 1.27 1.27))))
        (number "2" (effects (font (size 1.27 1.27))))
      )
      (pin bidirectional line (at 19.05 -11.43 180) (length 5.08)
        (name "scl" (effects (font (size 1.27 1.27))))
        (number "3" (effects (font (size 1.27 1.27))))
      )
      (pin bidirectional line (at 19.05 -7.62 180) (length 5.08)
        (name "sda" (effects (font (size 1.27 1.27))))
        (number "4" (effects (font (size 1.27 1.27))))
      )
      (pin bidirectional line (at 19.05 -3.81 180) (length 5.08)
        (name "sdo" (effects (font (size 1.27 1.27))))
        (number "5" (effects (font (size 1.27 1.27))))
      )
      (pin bidirectional line (at 19.05 0 180) (length 5.08)
        (name "cs" (effects (font (size 1.27 1.27))))
        (number "6" (effects (font (size 1.27 1.27))))
      )
    )
  )
  (symbol "temt6000" (in_bom yes) (on_board yes)
    (property "Reference" "U3" (at -2.54 10.16 0)
      (effects (font (size 1.27 1.27)))
    )
    (property "Value" "temt6000" (at -1.27 7.62 0)
      (effects (font (size 1.27 1.27)))
    )
    (property "Footprint" "footprints:temt6000" (at -6.35 3.81 0)
      (effects (font (size 1.27 1.27)) hide)
    )
    (property "Datasheet" "https://www.sparkfun.com/datasheets/Sensors/Imaging/TEMT6000.pdf" (at 0 0 0)
      (effects (font (size 1.27 1.27)) hide)
    )
    (symbol "temt6000_0_1"
      (rectangle (start -10.16 5.08) (end 7.62 -7.62)
        (stroke (width 0.254) (type default))
        (fill (type background))
      )
    )
    (symbol "temt6000_1_1"
      (pin power_in line (at 12.7 -6.35 180) (length 5.08)
        (name "sig" (effects (font (size 1.27 1.27))))
        (number "1" (effects (font (size 1.27 1.27))))
      )
      (pin power_in line (at 12.7 -1.27 180) (length 5.08)
        (name "gnd" (effects (font (size 1.27 1.27))))
        (number "2" (effects (font (size 1.27 1.27))))
      )
      (pin bidirectional line (at 12.7 3.81 180) (length 5.08)
        (name "vcc" (effects (font (size 1.27 1.27))))
        (number "3" (effects (font (size 1.27 1.27))))
      )
    )
  )
)
